# SRC: M87 
# RA: 12 h 30 m 49.4234 s
# DEC: 12 deg 23 m 28.0439 s
# MJD: 48277.000000 
# RF: 230.0000 GHz 
# FOVX: 32 pix 0.000146 as 
# FOVY: 32 pix 0.000146 as 
# ------------------------------------
# x (as)     y (as)       I (Jy/pixel)  Q (Jy/pixel)  U (Jy/pixel)  V (Jy/pixel)
0.0000682031 0.0000682031 0.0000000000 0.0000000000 0.0000000000 0.0000000000
0.0000636563 0.0000682031 0.0000011900 -0.0000006037 0.0000005406 0.0000000000
0.0000591094 0.0000682031 0.0000014044 -0.0000007364 0.0000005874 0.0000000000
0.0000545625 0.0000682031 0.0000016545 -0.0000008901 0.0000006254 0.0000000000
0.0000500156 0.0000682031 0.0000019452 -0.0000010638 0.0000006487 0.0000000000
0.0000454688 0.0000682031 0.0000022798 -0.0000012551 0.0000006490 0.0000000000
0.0000409219 0.0000682031 0.0000026636 -0.0000014573 0.0000006168 0.0000000000
0.0000363750 0.0000682031 0.0000031014 -0.0000016595 0.0000005381 0.0000000000
0.0000318281 0.0000682031 0.0000035953 -0.0000018425 0.0000004011 0.0000000000
0.0000272813 0.0000682031 0.0000041498 -0.0000019826 0.0000001939 0.0000000000
0.0000227344 0.0000682031 0.0000047688 -0.0000020476 -0.0000000940 0.0000000000
0.0000181875 0.0000682031 0.0000054578 -0.0000019970 -0.0000004694 0.0000000000
0.0000136406 0.0000682031 0.0000062247 -0.0000017838 -0.0000009283 0.0000000000
0.0000090938 0.0000682031 0.0000070803 -0.0000013622 -0.0000014546 0.0000000000
0.0000045469 0.0000682031 0.0000080468 -0.0000006963 -0.0000020217 0.0000000000
0.0000000000 0.0000682031 0.0000091493 0.0000002424 -0.0000025836 0.0000000000
-0.0000045469 0.0000682031 0.0000104223 0.0000014668 -0.0000030807 0.0000000000
-0.0000090938 0.0000682031 0.0000118999 0.0000029576 -0.0000034397 0.0000000000
-0.0000136406 0.0000682031 0.0000136149 0.0000046561 -0.0000035914 0.0000000000
-0.0000181875 0.0000682031 0.0000155893 0.0000064769 -0.0000034770 0.0000000000
-0.0000227344 0.0000682031 0.0000178269 0.0000083093 -0.0000030622 0.0000000000
-0.0000272813 0.0000682031 0.0000203079 0.0000100258 -0.0000023430 0.0000000000
-0.0000318281 0.0000682031 0.0000229727 0.0000115041 -0.0000013670 0.0000000000
-0.0000363750 0.0000682031 0.0000257334 0.0000126499 -0.0000002132 0.0000000000
-0.0000409219 0.0000682031 0.0000284844 0.0000134063 0.0000010175 0.0000000000
-0.0000454688 0.0000682031 0.0000310002 0.0000137711 0.0000021463 0.0000000000
-0.0000500156 0.0000682031 0.0000324638 0.0000137930 0.0000027471 0.0000000000
-0.0000545625 0.0000682031 0.0000329192 0.0000134861 0.0000029767 0.0000000000
-0.0000591094 0.0000682031 0.0000325948 0.0000129453 0.0000029550 0.0000000000
-0.0000636563 0.0000682031 0.0000317068 0.0000122700 0.0000027606 0.0000000000
-0.0000682031 0.0000682031 0.0000000000 0.0000000000 0.0000000000 0.0000000000
-0.0000727500 0.0000682031 0.0000000000 0.0000000000 0.0000000000 0.0000000000
0.0000682031 0.0000636563 0.0000000000 0.0000000000 0.0000000000 0.0000000000
0.0000636563 0.0000636563 0.0000014696 -0.0000006971 0.0000007125 0.0000000000
0.0000591094 0.0000636563 0.0000017540 -0.0000008657 0.0000007891 0.0000000000
0.0000545625 0.0000636563 0.0000020901 -0.0000010652 0.0000008587 0.0000000000
0.0000500156 0.0000636563 0.0000024864 -0.0000012962 0.0000009135 0.0000000000
0.0000454688 0.0000636563 0.0000029500 -0.0000015579 0.0000009414 0.0000000000
0.0000409219 0.0000636563 0.0000034891 -0.0000018422 0.0000009290 0.0000000000
0.0000363750 0.0000636563 0.0000041141 -0.0000021373 0.0000008555 0.0000000000
0.0000318281 0.0000636563 0.0000048298 -0.0000024187 0.0000007013 0.0000000000
0.0000272813 0.0000636563 0.0000056430 -0.0000026526 0.0000004454 0.0000000000
0.0000227344 0.0000636563 0.0000065605 -0.0000027929 0.0000000679 0.0000000000
0.0000181875 0.0000636563 0.0000075909 -0.0000027774 -0.0000004488 0.0000000000
0.0000136406 0.0000636563 0.0000087466 -0.0000025342 -0.0000011048 0.0000000000
0.0000090938 0.0000636563 0.0000100412 -0.0000019892 -0.0000018844 0.0000000000
0.0000045469 0.0000636563 0.0000114987 -0.0000010734 -0.0000027457 0.0000000000
0.0000000000 0.0000636563 0.0000131538 0.0000002657 -0.0000036192 0.0000000000
-0.0000045469 0.0000636563 0.0000150594 0.0000020453 -0.0000044086 0.0000000000
-0.0000090938 0.0000636563 0.0000172644 0.0000042386 -0.0000049889 0.0000000000
-0.0000136406 0.0000636563 0.0000198125 0.0000067430 -0.0000052428 0.0000000000
-0.0000181875 0.0000636563 0.0000227196 0.0000094115 -0.0000050708 0.0000000000
-0.0000227344 0.0000636563 0.0000259759 0.0000120508 -0.0000044258 0.0000000000
-0.0000272813 0.0000636563 0.0000295162 0.0000144463 -0.0000033140 0.0000000000
-0.0000318281 0.0000636563 0.0000332181 0.0000164048 -0.0000018381 0.0000000000
-0.0000363750 0.0000636563 0.0000369200 0.0000177961 -0.0000001484 0.0000000000
-0.0000409219 0.0000636563 0.0000401268 0.0000185832 0.0000013932 0.0000000000
-0.0000454688 0.0000636563 0.0000418191 0.0000187395 0.0000023314 0.0000000000
-0.0000500156 0.0000636563 0.0000421203 0.0000183165 0.0000028269 0.0000000000
-0.0000545625 0.0000636563 0.0000413761 0.0000175146 0.0000029928 0.0000000000
-0.0000591094 0.0000636563 0.0000399040 0.0000165000 0.0000029140 0.0000000000
-0.0000636563 0.0000636563 0.0000379767 0.0000153955 0.0000026645 0.0000000000
-0.0000682031 0.0000636563 0.0000357965 0.0000142828 0.0000023143 0.0000000000
-0.0000727500 0.0000636563 0.0000335168 0.0000132138 0.0000019142 0.0000000000
0.0000682031 0.0000591094 0.0000000000 0.0000000000 0.0000000000 0.0000000000
0.0000636563 0.0000591094 0.0000018086 -0.0000007937 0.0000009286 0.0000000000
0.0000591094 0.0000591094 0.0000021829 -0.0000010041 0.0000010482 0.0000000000
0.0000545625 0.0000591094 0.0000026329 -0.0000012591 0.0000011652 0.0000000000
0.0000500156 0.0000591094 0.0000031710 -0.0000015626 0.0000012693 0.0000000000
0.0000454688 0.0000591094 0.0000038117 -0.0000019154 0.0000013453 0.0000000000
0.0000409219 0.0000591094 0.0000045673 -0.0000023107 0.0000013743 0.0000000000
0.0000363750 0.0000591094 0.0000054566 -0.0000027349 0.0000013252 0.0000000000
0.0000318281 0.0000591094 0.0000064913 -0.0000031574 0.0000011683 0.0000000000
0.0000272813 0.0000591094 0.0000076828 -0.0000035338 0.0000008666 0.0000000000
0.0000227344 0.0000591094 0.0000090456 -0.0000037970 0.0000003812 0.0000000000
0.0000181875 0.0000591094 0.0000105915 -0.0000038553 -0.0000003187 0.0000000000
0.0000136406 0.0000591094 0.0000123384 -0.0000035932 -0.0000012515 0.0000000000
0.0000090938 0.0000591094 0.0000143089 -0.0000028907 -0.0000024015 0.0000000000
0.0000045469 0.0000591094 0.0000165353 -0.0000016268 -0.0000037142 0.0000000000
0.0000000000 0.0000591094 0.0000190667 0.0000002918 -0.0000050833 0.0000000000
-0.0000045469 0.0000591094 0.0000219698 0.0000029125 -0.0000063457 0.0000000000
-0.0000090938 0.0000591094 0.0000253182 0.0000061800 -0.0000072883 0.0000000000
-0.0000136406 0.0000591094 0.0000291640 0.0000099203 -0.0000077032 0.0000000000
-0.0000181875 0.0000591094 0.0000335140 0.0000138649 -0.0000074272 0.0000000000
-0.0000227344 0.0000591094 0.0000383023 0.0000176737 -0.0000063886 0.0000000000
-0.0000272813 0.0000591094 0.0000433726 0.0000209843 -0.0000046436 0.0000000000
-0.0000318281 0.0000591094 0.0000484698 0.0000235082 -0.0000024011 0.0000000000
-0.0000363750 0.0000591094 0.0000526384 0.0000250640 -0.0000002869 0.0000000000
-0.0000409219 0.0000591094 0.0000546396 0.0000254976 0.0000012206 0.0000000000
-0.0000454688 0.0000591094 0.0000547122 0.0000249880 0.0000022184 0.0000000000
-0.0000500156 0.0000591094 0.0000533134 0.0000238362 0.0000027536 0.0000000000
-0.0000545625 0.0000591094 0.0000509610 0.0000223429 0.0000029274 0.0000000000
-0.0000591094 0.0000591094 0.0000480508 0.0000207060 0.0000028374 0.0000000000
-0.0000636563 0.0000591094 0.0000448727 0.0000190566 0.0000025695 0.0000000000
-0.0000682031 0.0000591094 0.0000416327 0.0000174740 0.0000022000 0.0000000000
-0.0000727500 0.0000591094 0.0000384608 0.0000160015 0.0000017815 0.0000000000
0.0000682031 0.0000545625 0.0000000000 0.0000000000 0.0000000000 0.0000000000
0.0000636563 0.0000545625 0.0000022151 -0.0000008868 0.0000011965 0.0000000000
0.0000591094 0.0000545625 0.0000027049 -0.0000011452 0.0000013759 0.0000000000
0.0000545625 0.0000545625 0.0000033031 -0.0000014669 0.0000015611 0.0000000000
0.0000500156 0.0000545625 0.0000040294 -0.0000018592 0.0000017408 0.0000000000
0.0000454688 0.0000545625 0.0000049068 -0.0000023272 0.0000018951 0.0000000000
0.0000409219 0.0000545625 0.0000059612 -0.0000028678 0.0000019986 0.0000000000
0.0000363750 0.0000545625 0.0000072222 -0.0000034670 0.0000020087 0.0000000000
0.0000318281 0.0000545625 0.0000087126 -0.0000040914 0.0000018782 0.0000000000
0.0000272813 0.0000545625 0.0000104565 -0.0000046794 0.0000015466 0.0000000000
0.0000227344 0.0000545625 0.0000124774 -0.0000051379 0.0000009481 0.0000000000
0.0000181875 0.0000545625 0.0000147985 -0.0000053302 0.0000000166 0.0000000000
0.0000136406 0.0000545625 0.0000174507 -0.0000050761 -0.0000012963 0.0000000000
0.0000090938 0.0000545625 0.0000204613 -0.0000041741 -0.0000029893 0.0000000000
0.0000045469 0.0000545625 0.0000238863 -0.0000024196 -0.0000049937 0.0000000000
0.0000000000 0.0000545625 0.0000277937 0.0000003622 -0.0000071492 0.0000000000
-0.0000045469 0.0000545625 0.0000322866 0.0000042572 -0.0000091795 0.0000000000
-0.0000090938 0.0000545625 0.0000374602 0.0000091817 -0.0000107078 0.0000000000
-0.0000136406 0.0000545625 0.0000433606 0.0000148175 -0.0000113685 0.0000000000
-0.0000181875 0.0000545625 0.0000499470 0.0000206732 -0.0000108804 0.0000000000
-0.0000227344 0.0000545625 0.0000570305 0.0000261435 -0.0000091649 0.0000000000
-0.0000272813 0.0000545625 0.0000642371 0.0000306248 -0.0000064052 0.0000000000
-0.0000318281 0.0000545625 0.0000699154 0.0000335797 -0.0000035141 0.0000000000
-0.0000363750 0.0000545625 0.0000724305 0.0000346251 -0.0000011100 0.0000000000
-0.0000409219 0.0000545625 0.0000721306 0.0000341144 0.0000007148 0.0000000000
-0.0000454688 0.0000545625 0.0000697719 0.0000325641 0.0000019363 0.0000000000
-0.0000500156 0.0000545625 0.0000660941 0.0000304257 0.0000026119 0.0000000000
-0.0000545625 0.0000545625 0.0000617154 0.0000280378 0.0000028613 0.0000000000
-0.0000591094 0.0000545625 0.0000570686 0.0000256166 0.0000028073 0.0000000000
-0.0000636563 0.0000545625 0.0000524313 0.0000232902 0.0000025534 0.0000000000
-0.0000682031 0.0000545625 0.0000479777 0.0000211301 0.0000021829 0.0000000000
-0.0000727500 0.0000545625 0.0000438070 0.0000191677 0.0000017568 0.0000000000
0.0000682031 0.0000500156 0.0000000000 0.0000000000 0.0000000000 0.0000000000
0.0000636563 0.0000500156 0.0000026969 -0.0000009695 0.0000015219 0.0000000000
0.0000591094 0.0000500156 0.0000033330 -0.0000012810 0.0000017830 0.0000000000
0.0000545625 0.0000500156 0.0000041210 -0.0000016781 0.0000020650 0.0000000000
0.0000500156 0.0000500156 0.0000050936 -0.0000021759 0.0000023556 0.0000000000
0.0000454688 0.0000500156 0.0000062893 -0.0000027856 0.0000026337 0.0000000000
0.0000409219 0.0000500156 0.0000077504 -0.0000035121 0.0000028631 0.0000000000
0.0000363750 0.0000500156 0.0000095299 -0.0000043471 0.0000029904 0.0000000000
0.0000318281 0.0000500156 0.0000116683 -0.0000052508 0.0000029432 0.0000000000
0.0000272813 0.0000500156 0.0000142133 -0.0000061481 0.0000026276 0.0000000000
0.0000227344 0.0000500156 0.0000172086 -0.0000069101 0.0000019303 0.0000000000
0.0000181875 0.0000500156 0.0000206978 -0.0000073355 0.0000007256 0.0000000000
0.0000136406 0.0000500156 0.0000247300 -0.0000071418 -0.0000010990 0.0000000000
0.0000090938 0.0000500156 0.0000293556 -0.0000059968 -0.0000035840 0.0000000000
0.0000045469 0.0000500156 0.0000346574 -0.0000035384 -0.0000066584 0.0000000000
0.0000000000 0.0000500156 0.0000407479 0.0000005489 -0.0000100731 0.0000000000
-0.0000045469 0.0000500156 0.0000477831 0.0000064266 -0.0000133572 0.0000000000
-0.0000090938 0.0000500156 0.0000558919 0.0000139420 -0.0000158387 0.0000000000
-0.0000136406 0.0000500156 0.0000650860 0.0000224995 -0.0000168423 0.0000000000
-0.0000181875 0.0000500156 0.0000751668 0.0000311805 -0.0000159112 0.0000000000
-0.0000227344 0.0000500156 0.0000856232 0.0000389178 -0.0000130333 0.0000000000
-0.0000272813 0.0000500156 0.0000938631 0.0000443681 -0.0000092449 0.0000000000
-0.0000318281 0.0000500156 0.0000973316 0.0000466886 -0.0000055257 0.0000000000
-0.0000363750 0.0000500156 0.0000965527 0.0000464485 -0.0000023800 0.0000000000
-0.0000409219 0.0000500156 0.0000927388 0.0000444972 -0.0000000138 0.0000000000
-0.0000454688 0.0000500156 0.0000870819 0.0000415582 0.0000015760 0.0000000000
-0.0000500156 0.0000500156 0.0000805171 0.0000381666 0.0000024970 0.0000000000
-0.0000545625 0.0000500156 0.0000736928 0.0000346679 0.0000029021 0.0000000000
-0.0000591094 0.0000500156 0.0000670134 0.0000312833 0.0000029400 0.0000000000
-0.0000636563 0.0000500156 0.0000607076 0.0000281319 0.0000027219 0.0000000000
-0.0000682031 0.0000500156 0.0000548881 0.0000252716 0.0000023588 0.0000000000
-0.0000727500 0.0000500156 0.0000496083 0.0000227263 0.0000019147 0.0000000000
0.0000682031 0.0000454688 0.0000000000 0.0000000000 0.0000000000 0.0000000000
0.0000636563 0.0000454688 0.0000032620 -0.0000010311 0.0000019110 0.0000000000
0.0000591094 0.0000454688 0.0000040794 -0.0000013981 0.0000022798 0.0000000000
0.0000545625 0.0000454688 0.0000051086 -0.0000018787 0.0000026950 0.0000000000
0.0000500156 0.0000454688 0.0000064015 -0.0000024966 0.0000031460 0.0000000000
0.0000454688 0.0000454688 0.0000080174 -0.0000032767 0.0000036091 0.0000000000
0.0000409219 0.0000454688 0.0000100292 -0.0000042350 0.0000040460 0.0000000000
0.0000363750 0.0000454688 0.0000125267 -0.0000053764 0.0000043849 0.0000000000
0.0000318281 0.0000454688 0.0000155847 -0.0000066610 0.0000045259 0.0000000000
0.0000272813 0.0000454688 0.0000192916 -0.0000079991 0.0000043269 0.0000000000
0.0000227344 0.0000454688 0.0000237284 -0.0000092208 0.0000035969 0.0000000000
0.0000181875 0.0000454688 0.0000289802 -0.0000100346 0.0000021092 0.0000000000
0.0000136406 0.0000454688 0.0000351366 -0.0000100015 -0.0000003815 0.0000000000
0.0000090938 0.0000454688 0.0000422808 -0.0000085656 -0.0000040184 0.0000000000
0.0000045469 0.0000454688 0.0000505522 -0.0000050902 -0.0000087656 0.0000000000
0.0000000000 0.0000454688 0.0000601431 0.0000010018 -0.0000142438 0.0000000000
-0.0000045469 0.0000454688 0.0000712981 0.0000100340 -0.0000196284 0.0000000000
-0.0000090938 0.0000454688 0.0000841882 0.0000216754 -0.0000236576 0.0000000000
-0.0000136406 0.0000454688 0.0000986864 0.0000347640 -0.0000250920 0.0000000000
-0.0000181875 0.0000454688 0.0001141690 0.0000475464 -0.0000232356 0.0000000000
-0.0000227344 0.0000454688 0.0001269208 0.0000573704 -0.0000188037 0.0000000000
-0.0000272813 0.0000454688 0.0001323679 0.0000621777 -0.0000133529 0.0000000000
-0.0000318281 0.0000454688 0.0001311048 0.0000627851 -0.0000082204 0.0000000000
-0.0000363750 0.0000454688 0.0001252046 0.0000606045 -0.0000040214 0.0000000000
-0.0000409219 0.0000454688 0.0001165894 0.0000567612 -0.0000008819 0.0000000000
-0.0000454688 0.0000454688 0.0001067480 0.0000520926 0.0000012705 0.0000000000
-0.0000500156 0.0000454688 0.0000966846 0.0000471532 0.0000025713 0.0000000000
-0.0000545625 0.0000454688 0.0000869971 0.0000423020 0.0000032217 0.0000000000
-0.0000591094 0.0000454688 0.0000779847 0.0000377471 0.0000033854 0.0000000000
-0.0000636563 0.0000454688 0.0000697898 0.0000336030 0.0000032185 0.0000000000
-0.0000682031 0.0000454688 0.0000624451 0.0000299115 0.0000028392 0.0000000000
-0.0000727500 0.0000454688 0.0000559265 0.0000266738 0.0000023512 0.0000000000
0.0000682031 0.0000409219 0.0000000000 0.0000000000 0.0000000000 0.0000000000
0.0000636563 0.0000409219 0.0000039145 -0.0000010582 0.0000023666 0.0000000000
0.0000591094 0.0000409219 0.0000049554 -0.0000014787 0.0000028758 0.0000000000
0.0000545625 0.0000409219 0.0000062876 -0.0000020445 0.0000034703 0.0000000000
0.0000500156 0.0000409219 0.0000079882 -0.0000027942 0.0000041445 0.0000000000
0.0000454688 0.0000409219 0.0000101561 -0.0000037694 0.0000048823 0.0000000000
0.0000409219 0.0000409219 0.0000129071 -0.0000050065 0.0000056425 0.0000000000
0.0000363750 0.0000409219 0.0000163935 -0.0000065315 0.0000063459 0.0000000000
0.0000318281 0.0000409219 0.0000207507 -0.0000083180 0.0000068571 0.0000000000
0.0000272813 0.0000409219 0.0000261452 -0.0000102727 0.0000069725 0.0000000000
0.0000227344 0.0000409219 0.0000327311 -0.0000121750 0.0000063868 0.0000000000
0.0000181875 0.0000409219 0.0000406683 -0.0000136145 0.0000047007 0.0000000000
0.0000136406 0.0000409219 0.0000501225 -0.0000139169 0.0000014106 0.0000000000
0.0000090938 0.0000409219 0.0000612399 -0.0000121537 -0.0000038764 0.0000000000
0.0000045469 0.0000409219 0.0000742613 -0.0000071902 -0.0000112729 0.0000000000
0.0000000000 0.0000409219 0.0000895300 0.0000020627 -0.0000202301 0.0000000000
-0.0000045469 0.0000409219 0.0001074547 0.0000162053 -0.0000292391 0.0000000000
-0.0000090938 0.0000409219 0.0001282279 0.0000345177 -0.0000358259 0.0000000000
-0.0000136406 0.0000409219 0.0001513123 0.0000546107 -0.0000377035 0.0000000000
-0.0000181875 0.0000409219 0.0001718442 0.0000717419 -0.0000339487 0.0000000000
-0.0000227344 0.0000409219 0.0001815437 0.0000813314 -0.0000266131 0.0000000000
-0.0000272813 0.0000409219 0.0001803309 0.0000839702 -0.0000186358 0.0000000000
-0.0000318281 0.0000409219 0.0001715706 0.0000819822 -0.0000115918 0.0000000000
-0.0000363750 0.0000409219 0.0001586013 0.0000772630 -0.0000059265 0.0000000000
-0.0000409219 0.0000409219 0.0001438597 0.0000710791 -0.0000016899 0.0000000000
-0.0000454688 0.0000409219 0.0001289479 0.0000643126 0.0000012592 0.0000000000
-0.0000500156 0.0000409219 0.0001147681 0.0000574888 0.0000030967 0.0000000000
-0.0000545625 0.0000409219 0.0001017688 0.0000509935 0.0000040553 0.0000000000
-0.0000591094 0.0000409219 0.0000901108 0.0000450323 0.0000043535 0.0000000000
-0.0000636563 0.0000409219 0.0000797897 0.0000397061 0.0000041925 0.0000000000
-0.0000682031 0.0000409219 0.0000707296 0.0000350294 0.0000037571 0.0000000000
-0.0000727500 0.0000409219 0.0000628319 0.0000309851 0.0000031715 0.0000000000
0.0000682031 0.0000363750 0.0000000000 0.0000000000 0.0000000000 0.0000000000
0.0000636563 0.0000363750 0.0000046583 -0.0000010331 0.0000028899 0.0000000000
0.0000591094 0.0000363750 0.0000059698 -0.0000014996 0.0000035766 0.0000000000
0.0000545625 0.0000363750 0.0000076764 -0.0000021451 0.0000044061 0.0000000000
0.0000500156 0.0000363750 0.0000098964 -0.0000030270 0.0000053887 0.0000000000
0.0000454688 0.0000363750 0.0000127812 -0.0000042094 0.0000065225 0.0000000000
0.0000409219 0.0000363750 0.0000165214 -0.0000057624 0.0000077800 0.0000000000
0.0000363750 0.0000363750 0.0000213705 -0.0000077486 0.0000090868 0.0000000000
0.0000318281 0.0000363750 0.0000275811 -0.0000101723 0.0000102862 0.0000000000
0.0000272813 0.0000363750 0.0000354540 -0.0000129519 0.0000111051 0.0000000000
0.0000227344 0.0000363750 0.0000452980 -0.0000158251 0.0000110877 0.0000000000
0.0000181875 0.0000363750 0.0000574303 -0.0000182430 0.0000095286 0.0000000000
0.0000136406 0.0000363750 0.0000721585 -0.0000191737 0.0000054532 0.0000000000
0.0000090938 0.0000363750 0.0000897414 -0.0000170724 -0.0000021418 0.0000000000
0.0000045469 0.0000363750 0.0001105697 -0.0000098693 -0.0000138552 0.0000000000
0.0000000000 0.0000363750 0.0001352841 0.0000045139 -0.0000289467 0.0000000000
-0.0000045469 0.0000363750 0.0001646219 0.0000272043 -0.0000445022 0.0000000000
-0.0000090938 0.0000363750 0.0001987079 0.0000565162 -0.0000555086 0.0000000000
-0.0000136406 0.0000363750 0.0002321606 0.0000852969 -0.0000566142 0.0000000000
-0.0000181875 0.0000363750 0.0002502768 0.0001035429 -0.0000484464 0.0000000000
-0.0000227344 0.0000363750 0.0002508790 0.0001107363 -0.0000368565 0.0000000000
-0.0000272813 0.0000363750 0.0002386564 0.0001101119 -0.0000254661 0.0000000000
-0.0000318281 0.0000363750 0.0002193724 0.0001048025 -0.0000156816 0.0000000000
-0.0000363750 0.0000363750 0.0001972704 0.0000969099 -0.0000078738 0.0000000000
-0.0000409219 0.0000363750 0.0001750157 0.0000878242 -0.0000020449 0.0000000000
-0.0000454688 0.0000363750 0.0001540448 0.0000784174 0.0000019939 0.0000000000
-0.0000500156 0.0000363750 0.0001350728 0.0000692814 0.0000044906 0.0000000000
-0.0000545625 0.0000363750 0.0001182755 0.0000607881 0.0000057662 0.0000000000
-0.0000591094 0.0000363750 0.0001035916 0.0000531314 0.0000061416 0.0000000000
-0.0000636563 0.0000363750 0.0000908581 0.0000464022 0.0000058935 0.0000000000
-0.0000682031 0.0000363750 0.0000798720 0.0000405929 0.0000052811 0.0000000000
-0.0000727500 0.0000363750 0.0000704218 0.0000356336 0.0000044898 0.0000000000
0.0000682031 0.0000318281 0.0000000000 0.0000000000 0.0000000000 0.0000000000
0.0000636563 0.0000318281 0.0000054880 -0.0000009401 0.0000034716 0.0000000000
0.0000591094 0.0000318281 0.0000071193 -0.0000014334 0.0000043764 0.0000000000
0.0000545625 0.0000318281 0.0000092804 -0.0000021406 0.0000055054 0.0000000000
0.0000500156 0.0000318281 0.0000121446 -0.0000031377 0.0000068961 0.0000000000
0.0000454688 0.0000318281 0.0000159465 -0.0000045195 0.0000085810 0.0000000000
0.0000409219 0.0000318281 0.0000209892 -0.0000063968 0.0000105720 0.0000000000
0.0000363750 0.0000318281 0.0000276992 -0.0000088886 0.0000128376 0.0000000000
0.0000318281 0.0000318281 0.0000365325 -0.0000120536 0.0000152335 0.0000000000
0.0000272813 0.0000318281 0.0000480590 -0.0000158542 0.0000174512 0.0000000000
0.0000227344 0.0000318281 0.0000629067 -0.0000200207 0.0000188608 0.0000000000
0.0000181875 0.0000318281 0.0000817226 -0.0000238376 0.0000183337 0.0000000000
0.0000136406 0.0000318281 0.0001051099 -0.0000258046 0.0000139841 0.0000000000
0.0000090938 0.0000318281 0.0001334697 -0.0000233648 0.0000034545 0.0000000000
0.0000045469 0.0000318281 0.0001673923 -0.0000127727 -0.0000152436 0.0000000000
0.0000000000 0.0000318281 0.0002079829 0.0000100575 -0.0000414627 0.0000000000
-0.0000045469 0.0000318281 0.0002566631 0.0000471766 -0.0000693836 0.0000000000
-0.0000090938 0.0000318281 0.0003100547 0.0000922443 -0.0000860090 0.0000000000
-0.0000136406 0.0000318281 0.0003448112 0.0001257780 -0.0000824221 0.0000000000
-0.0000181875 0.0000318281 0.0003515407 0.0001421993 -0.0000682013 0.0000000000
-0.0000227344 0.0000318281 0.0003363597 0.0001459420 -0.0000511445 0.0000000000
-0.0000272813 0.0000318281 0.0003084185 0.0001415207 -0.0000347337 0.0000000000
-0.0000318281 0.0000318281 0.0002753926 0.0001322508 -0.0000205052 0.0000000000
-0.0000363750 0.0000318281 0.0002419688 0.0001203376 -0.0000092860 0.0000000000
-0.0000409219 0.0000318281 0.0002106420 0.0001074105 -0.0000011762 0.0000000000
-0.0000454688 0.0000318281 0.0001825162 0.0000945957 0.0000042012 0.0000000000
-0.0000500156 0.0000318281 0.0001579582 0.0000825541 0.0000073463 0.0000000000
-0.0000545625 0.0000318281 0.0001367600 0.0000716135 0.0000088081 0.0000000000
-0.0000591094 0.0000318281 0.0001186144 0.0000619551 0.0000090689 0.0000000000
-0.0000636563 0.0000318281 0.0001031311 0.0000536041 0.0000085429 0.0000000000
-0.0000682031 0.0000318281 0.0000899590 0.0000465114 0.0000075729 0.0000000000
-0.0000727500 0.0000318281 0.0000787648 0.0000405450 0.0000064139 0.0000000000
0.0000682031 0.0000272813 0.0000000000 0.0000000000 0.0000000000 0.0000000000
0.0000636563 0.0000272813 0.0000063934 -0.0000007585 0.0000040982 0.0000000000
0.0000591094 0.0000272813 0.0000083964 -0.0000012509 0.0000052616 0.0000000000
0.0000545625 0.0000272813 0.0000110958 -0.0000019827 0.0000067583 0.0000000000
0.0000500156 0.0000272813 0.0000147459 -0.0000030516 0.0000086721 0.0000000000
0.0000454688 0.0000272813 0.0000196996 -0.0000045845 0.0000110991 0.0000000000
0.0000409219 0.0000272813 0.0000264381 -0.0000067378 0.0000141336 0.0000000000
0.0000363750 0.0000272813 0.0000356715 -0.0000097029 0.0000178602 0.0000000000
0.0000318281 0.0000272813 0.0000482283 -0.0000136134 0.0000222463 0.0000000000
0.0000272813 0.0000272813 0.0000652137 -0.0000185080 0.0000270620 0.0000000000
0.0000227344 0.0000272813 0.0000879449 -0.0000241484 0.0000316021 0.0000000000
0.0000181875 0.0000272813 0.0001178749 -0.0000296856 0.0000342102 0.0000000000
0.0000136406 0.0000272813 0.0001563324 -0.0000330550 0.0000314876 0.0000000000
0.0000090938 0.0000272813 0.0002038830 -0.0000301962 0.0000180854 0.0000000000
0.0000045469 0.0000272813 0.0002609394 -0.0000143337 -0.0000117905 0.0000000000
0.0000000000 0.0000272813 0.0003255313 0.0000226287 -0.0000565308 0.0000000000
-0.0000045469 0.0000272813 0.0003904816 0.0000778755 -0.0000976284 0.0000000000
-0.0000090938 0.0000272813 0.0004479120 0.0001289929 -0.0001142740 0.0000000000
-0.0000136406 0.0000272813 0.0004770640 0.0001621274 -0.0001111236 0.0000000000
-0.0000181875 0.0000272813 0.0004718325 0.0001810491 -0.0000959254 0.0000000000
-0.0000227344 0.0000272813 0.0004403211 0.0001870695 -0.0000733314 0.0000000000
-0.0000272813 0.0000272813 0.0003921572 0.0001801981 -0.0000482944 0.0000000000
-0.0000318281 0.0000272813 0.0003415969 0.0001663721 -0.0000260941 0.0000000000
-0.0000363750 0.0000272813 0.0002941312 0.0001488954 -0.0000091243 0.0000000000
-0.0000409219 0.0000272813 0.0002517871 0.0001304864 0.0000022353 0.0000000000
-0.0000454688 0.0000272813 0.0002150865 0.0001129926 0.0000090175 0.0000000000
-0.0000500156 0.0000272813 0.0001839234 0.0000972282 0.0000125096 0.0000000000
-0.0000545625 0.0000272813 0.0001575913 0.0000833391 0.0000137778 0.0000000000
-0.0000591094 0.0000272813 0.0001354198 0.0000713417 0.0000135420 0.0000000000
-0.0000636563 0.0000272813 0.0001167865 0.0000611766 0.0000123970 0.0000000000
-0.0000682031 0.0000272813 0.0001011156 0.0000526776 0.0000107911 0.0000000000
-0.0000727500 0.0000272813 0.0000879517 0.0000456370 0.0000090545 0.0000000000
0.0000682031 0.0000227344 0.0000000000 0.0000000000 0.0000000000 0.0000000000
0.0000636563 0.0000227344 0.0000073578 -0.0000004718 0.0000047457 0.0000000000
0.0000591094 0.0000227344 0.0000097804 -0.0000009214 0.0000062033 0.0000000000
0.0000545625 0.0000227344 0.0000131035 -0.0000016196 0.0000081353 0.0000000000
0.0000500156 0.0000227344 0.0000176901 -0.0000026808 0.0000106930 0.0000000000
0.0000454688 0.0000227344 0.0000240657 -0.0000042586 0.0000140770 0.0000000000
0.0000409219 0.0000227344 0.0000329805 -0.0000065464 0.0000185363 0.0000000000
0.0000363750 0.0000227344 0.0000456089 -0.0000097949 0.0000243966 0.0000000000
0.0000318281 0.0000227344 0.0000634660 -0.0000142088 0.0000319346 0.0000000000
0.0000272813 0.0000227344 0.0000887328 -0.0000198923 0.0000412959 0.0000000000
0.0000227344 0.0000227344 0.0001243345 -0.0000266218 0.0000520890 0.0000000000
0.0000181875 0.0000227344 0.0001739267 -0.0000334213 0.0000623685 0.0000000000
0.0000136406 0.0000227344 0.0002412843 -0.0000377759 0.0000663771 0.0000000000
0.0000090938 0.0000227344 0.0003248910 -0.0000321925 0.0000532215 0.0000000000
0.0000045469 0.0000227344 0.0003897178 0.0000020347 0.0000106675 0.0000000000
0.0000000000 0.0000227344 0.0004538593 0.0000584941 -0.0000535012 0.0000000000
-0.0000045469 0.0000227344 0.0005157548 0.0001247465 -0.0001039194 0.0000000000
-0.0000090938 0.0000227344 0.0005648609 0.0001746070 -0.0001180267 0.0000000000
-0.0000136406 0.0000227344 0.0005842446 0.0001940057 -0.0001184133 0.0000000000
-0.0000181875 0.0000227344 0.0005726593 0.0002012202 -0.0001166280 0.0000000000
-0.0000227344 0.0000227344 0.0005430494 0.0002153638 -0.0001039011 0.0000000000
-0.0000272813 0.0000227344 0.0004887986 0.0002238716 -0.0000692271 0.0000000000
-0.0000318281 0.0000227344 0.0004211480 0.0002097879 -0.0000324424 0.0000000000
-0.0000363750 0.0000227344 0.0003558567 0.0001843807 -0.0000055788 0.0000000000
-0.0000409219 0.0000227344 0.0002998242 0.0001576704 0.0000103296 0.0000000000
-0.0000454688 0.0000227344 0.0002526751 0.0001335364 0.0000181260 0.0000000000
-0.0000500156 0.0000227344 0.0002135550 0.0001130004 0.0000211057 0.0000000000
-0.0000545625 0.0000227344 0.0001811347 0.0000956219 0.0000213880 0.0000000000
-0.0000591094 0.0000227344 0.0001542710 0.0000810186 0.0000200068 0.0000000000
-0.0000636563 0.0000227344 0.0001319855 0.0000688926 0.0000177310 0.0000000000
-0.0000682031 0.0000227344 0.0001134642 0.0000589337 0.0000151069 0.0000000000
-0.0000727500 0.0000227344 0.0000980484 0.0000507934 0.0000124990 0.0000000000
0.0000682031 0.0000181875 0.0000000000 0.0000000000 0.0000000000 0.0000000000
0.0000636563 0.0000181875 0.0000083558 -0.0000000677 0.0000053822 0.0000000000
0.0000591094 0.0000181875 0.0000112388 -0.0000004185 0.0000071577 0.0000000000
0.0000545625 0.0000181875 0.0000152657 -0.0000010008 0.0000095778 0.0000000000
0.0000500156 0.0000181875 0.0000209428 -0.0000019313 0.0000128907 0.0000000000
0.0000454688 0.0000181875 0.0000290327 -0.0000033645 0.0000174506 0.0000000000
0.0000409219 0.0000181875 0.0000406960 -0.0000055050 0.0000237589 0.0000000000
0.0000363750 0.0000181875 0.0000578582 -0.0000085908 0.0000325807 0.0000000000
0.0000318281 0.0000181875 0.0000832662 -0.0000127873 0.0000448429 0.0000000000
0.0000272813 0.0000181875 0.0001213206 -0.0000180660 0.0000617075 0.0000000000
0.0000227344 0.0000181875 0.0001788149 -0.0000238662 0.0000840893 0.0000000000
0.0000181875 0.0000181875 0.0002661578 -0.0000287156 0.0001106510 0.0000000000
0.0000136406 0.0000181875 0.0003804657 -0.0000268633 0.0001210378 0.0000000000
0.0000090938 0.0000181875 0.0005074663 -0.0000166224 0.0000648837 0.0000000000
0.0000045469 0.0000181875 0.0007225254 0.0000314756 -0.0000709861 0.0000000000
0.0000000000 0.0000181875 0.0007515566 0.0001226386 -0.0001319603 0.0000000000
-0.0000045469 0.0000181875 0.0007980103 0.0001472583 -0.0001726136 0.0000000000
-0.0000090938 0.0000181875 0.0008340900 0.0001103353 -0.0001148239 0.0000000000
-0.0000136406 0.0000181875 0.0006862392 0.0002092253 -0.0001460937 0.0000000000
-0.0000181875 0.0000181875 0.0006581438 0.0002220417 -0.0001523547 0.0000000000
-0.0000227344 0.0000181875 0.0006240948 0.0002308639 -0.0001287662 0.0000000000
-0.0000272813 0.0000181875 0.0005799168 0.0002528249 -0.0000958208 0.0000000000
-0.0000318281 0.0000181875 0.0005111745 0.0002584605 -0.0000390046 0.0000000000
-0.0000363750 0.0000181875 0.0004299551 0.0002281102 0.0000046584 0.0000000000
-0.0000409219 0.0000181875 0.0003564347 0.0001890078 0.0000264628 0.0000000000
-0.0000454688 0.0000181875 0.0002962644 0.0001554593 0.0000338637 0.0000000000
-0.0000500156 0.0000181875 0.0002475287 0.0001291005 0.0000345026 0.0000000000
-0.0000545625 0.0000181875 0.0002078351 0.0001078782 0.0000324315 0.0000000000
-0.0000591094 0.0000181875 0.0001754568 0.0000905485 0.0000289184 0.0000000000
-0.0000636563 0.0000181875 0.0001489364 0.0000764544 0.0000247994 0.0000000000
-0.0000682031 0.0000181875 0.0001271295 0.0000650715 0.0000206421 0.0000000000
-0.0000727500 0.0000181875 0.0001091651 0.0000558898 0.0000168307 0.0000000000
0.0000682031 0.0000136406 0.0000000000 0.0000000000 0.0000000000 0.0000000000
0.0000636563 0.0000136406 0.0000093584 0.0000004577 0.0000059624 0.0000000000
0.0000591094 0.0000136406 0.0000127313 0.0000002730 0.0000080612 0.0000000000
0.0000545625 0.0000136406 0.0000175274 -0.0000000884 0.0000109968 0.0000000000
0.0000500156 0.0000136406 0.0000244386 -0.0000007173 0.0000151399 0.0000000000
0.0000454688 0.0000136406 0.0000345489 -0.0000017298 0.0000210546 0.0000000000
0.0000409219 0.0000136406 0.0000496114 -0.0000032511 0.0000296094 0.0000000000
0.0000363750 0.0000136406 0.0000727382 -0.0000053458 0.0000422665 0.0000000000
0.0000318281 0.0000136406 0.0001088653 -0.0000078193 0.0000611283 0.0000000000
0.0000272813 0.0000136406 0.0001668232 -0.0000097897 0.0000894534 0.0000000000
0.0000227344 0.0000136406 0.0002627212 -0.0000088302 0.0001314272 0.0000000000
0.0000181875 0.0000136406 0.0004110112 0.0000009968 0.0001748839 0.0000000000
0.0000136406 0.0000136406 0.0006440258 0.0000310725 0.0001179481 0.0000000000
0.0000090938 0.0000136406 0.0007469631 0.0001408546 0.0001389465 0.0000000000
0.0000045469 0.0000136406 0.0006329183 0.0002294004 0.0000200789 0.0000000000
0.0000000000 0.0000136406 0.0006020006 0.0002623131 -0.0001589180 0.0000000000
-0.0000045469 0.0000136406 0.0006015416 0.0002410309 -0.0002057225 0.0000000000
-0.0000090938 0.0000136406 0.0006408142 0.0002205152 -0.0001997524 0.0000000000
-0.0000136406 0.0000136406 0.0008432305 0.0002081347 -0.0001829498 0.0000000000
-0.0000181875 0.0000136406 0.0007630054 0.0002074119 -0.0001830388 0.0000000000
-0.0000227344 0.0000136406 0.0007077317 0.0002293936 -0.0001700533 0.0000000000
-0.0000272813 0.0000136406 0.0006602765 0.0002677451 -0.0001103936 0.0000000000
-0.0000318281 0.0000136406 0.0006011612 0.0002977722 -0.0000402336 0.0000000000
-0.0000363750 0.0000136406 0.0005159257 0.0002753225 0.0000276303 0.0000000000
-0.0000409219 0.0000136406 0.0004235829 0.0002223110 0.0000555328 0.0000000000
-0.0000454688 0.0000136406 0.0003471464 0.0001767343 0.0000590829 0.0000000000
-0.0000500156 0.0000136406 0.0002865931 0.0001440277 0.0000541585 0.0000000000
-0.0000545625 0.0000136406 0.0002382089 0.0001191297 0.0000476662 0.0000000000
-0.0000591094 0.0000136406 0.0001993073 0.0000992685 0.0000406811 0.0000000000
-0.0000636563 0.0000136406 0.0001678727 0.0000834463 0.0000337909 0.0000000000
-0.0000682031 0.0000136406 0.0001422910 0.0000708501 0.0000274992 0.0000000000
-0.0000727500 0.0000136406 0.0001214112 0.0000607726 0.0000220831 0.0000000000
0.0000682031 0.0000090938 0.0000000000 0.0000000000 0.0000000000 0.0000000000
0.0000636563 0.0000090938 0.0000103342 0.0000010929 0.0000064402 0.0000000000
0.0000591094 0.0000090938 0.0000142129 0.0000011425 0.0000088406 0.0000000000
0.0000545625 0.0000090938 0.0000198289 0.0000011189 0.0000122750 0.0000000000
0.0000500156 0.0000090938 0.0000280968 0.0000009882 0.0000172562 0.0000000000
0.0000454688 0.0000090938 0.0000405274 0.0000007448 0.0000246023 0.0000000000
0.0000409219 0.0000090938 0.0000596847 0.0000004734 0.0000356458 0.0000000000
0.0000363750 0.0000090938 0.0000904587 0.0000005812 0.0000528017 0.0000000000
0.0000318281 0.0000090938 0.0001413805 0.0000023005 0.0000799262 0.0000000000
0.0000272813 0.0000090938 0.0002295308 0.0000089873 0.0001237899 0.0000000000
0.0000227344 0.0000090938 0.0003892116 0.0000293059 0.0001931317 0.0000000000
0.0000181875 0.0000090938 0.0006312618 0.0000873849 0.0002186729 0.0000000000
0.0000136406 0.0000090938 0.0010198877 0.0002295492 0.0002393371 0.0000000000
0.0000090938 0.0000090938 0.0008867157 0.0003930449 0.0001973650 0.0000000000
0.0000045469 0.0000090938 0.0008826465 0.0004873064 -0.0000602634 0.0000000000
0.0000000000 0.0000090938 0.0007732329 0.0004268907 -0.0002850598 0.0000000000
-0.0000045469 0.0000090938 0.0006962622 0.0003084110 -0.0002945217 0.0000000000
-0.0000090938 0.0000090938 0.0006623017 0.0002255899 -0.0002472295 0.0000000000
-0.0000136406 0.0000090938 0.0006971901 0.0001857414 -0.0002319028 0.0000000000
-0.0000181875 0.0000090938 0.0010475606 0.0002017621 -0.0001552604 0.0000000000
-0.0000227344 0.0000090938 0.0008079579 0.0001997772 -0.0001742882 0.0000000000
-0.0000272813 0.0000090938 0.0007568329 0.0002669311 -0.0001023434 0.0000000000
-0.0000318281 0.0000090938 0.0006924168 0.0003199347 -0.0000130352 0.0000000000
-0.0000363750 0.0000090938 0.0006070518 0.0003090511 0.0000736301 0.0000000000
-0.0000409219 0.0000090938 0.0005028112 0.0002497400 0.0001030693 0.0000000000
-0.0000454688 0.0000090938 0.0004063525 0.0001929620 0.0000959527 0.0000000000
-0.0000500156 0.0000090938 0.0003314790 0.0001554361 0.0000809181 0.0000000000
-0.0000545625 0.0000090938 0.0002727105 0.0001279768 0.0000675351 0.0000000000
-0.0000591094 0.0000090938 0.0002261830 0.0001063708 0.0000554165 0.0000000000
-0.0000636563 0.0000090938 0.0001890232 0.0000894063 0.0000446953 0.0000000000
-0.0000682031 0.0000090938 0.0001591045 0.0000760221 0.0000356311 0.0000000000
-0.0000727500 0.0000090938 0.0001349079 0.0000653242 0.0000282191 0.0000000000
0.0000682031 0.0000045469 0.0000000000 0.0000000000 0.0000000000 0.0000000000
0.0000636563 0.0000045469 0.0000112676 0.0000018143 0.0000067680 0.0000000000
0.0000591094 0.0000045469 0.0000156602 0.0000021625 0.0000094151 0.0000000000
0.0000545625 0.0000045469 0.0000221314 0.0000025904 0.0000132798 0.0000000000
0.0000500156 0.0000045469 0.0000318657 0.0000031659 0.0000190138 0.0000000000
0.0000454688 0.0000045469 0.0000468974 0.0000040728 0.0000276997 0.0000000000
0.0000409219 0.0000045469 0.0000708607 0.0000057908 0.0000411758 0.0000000000
0.0000363750 0.0000045469 0.0001111150 0.0000096271 0.0000629341 0.0000000000
0.0000318281 0.0000045469 0.0001816417 0.0000188587 0.0000989573 0.0000000000
0.0000272813 0.0000045469 0.0003130456 0.0000421252 0.0001605277 0.0000000000
0.0000227344 0.0000045469 0.0005525542 0.0001012100 0.0002476326 0.0000000000
0.0000181875 0.0000045469 0.0010003249 0.0002620462 0.0002257694 0.0000000000
0.0000136406 0.0000045469 0.0012227975 0.0004877842 0.0003081608 0.0000000000
0.0000090938 0.0000045469 0.0014866142 0.0008972266 0.0002028816 0.0000000000
0.0000045469 0.0000045469 0.0013777442 0.0009074295 -0.0002087087 0.0000000000
0.0000000000 0.0000045469 0.0011076456 0.0006686853 -0.0004695644 0.0000000000
-0.0000045469 0.0000045469 0.0009312126 0.0004395444 -0.0004441580 0.0000000000
-0.0000090938 0.0000045469 0.0007736409 0.0002927128 -0.0003414748 0.0000000000
-0.0000136406 0.0000045469 0.0007600213 0.0002066096 -0.0002607014 0.0000000000
-0.0000181875 0.0000045469 0.0009286733 0.0001754271 -0.0002158219 0.0000000000
-0.0000227344 0.0000045469 0.0009791774 0.0001956965 -0.0001141237 0.0000000000
-0.0000272813 0.0000045469 0.0008815386 0.0002560195 -0.0000065239 0.0000000000
-0.0000318281 0.0000045469 0.0007999007 0.0003215758 0.0000806027 0.0000000000
-0.0000363750 0.0000045469 0.0007087481 0.0003084224 0.0001619896 0.0000000000
-0.0000409219 0.0000045469 0.0005929956 0.0002532609 0.0001712343 0.0000000000
-0.0000454688 0.0000045469 0.0004754536 0.0001977368 0.0001445292 0.0000000000
-0.0000500156 0.0000045469 0.0003832911 0.0001604663 0.0001148639 0.0000000000
-0.0000545625 0.0000045469 0.0003121588 0.0001327146 0.0000919828 0.0000000000
-0.0000591094 0.0000045469 0.0002566352 0.0001109402 0.0000728894 0.0000000000
-0.0000636563 0.0000045469 0.0002127772 0.0000939138 0.0000573124 0.0000000000
-0.0000682031 0.0000045469 0.0001778554 0.0000803884 0.0000449181 0.0000000000
-0.0000727500 0.0000045469 0.0001498607 0.0000694494 0.0000351751 0.0000000000
0.0000682031 0.0000000000 0.0000000000 0.0000000000 0.0000000000 0.0000000000
0.0000636563 0.0000000000 0.0000120956 0.0000026470 0.0000068962 0.0000000000
0.0000591094 0.0000000000 0.0000169694 0.0000033786 0.0000097022 0.0000000000
0.0000545625 0.0000000000 0.0000242657 0.0000044072 0.0000138640 0.0000000000
0.0000500156 0.0000000000 0.0000354574 0.0000059587 0.0000201501 0.0000000000
0.0000454688 0.0000000000 0.0000531709 0.0000085168 0.0000298671 0.0000000000
0.0000409219 0.0000000000 0.0000823068 0.0000131737 0.0000452915 0.0000000000
0.0000363750 0.0000000000 0.0001332741 0.0000226836 0.0000708455 0.0000000000
0.0000318281 0.0000000000 0.0002272500 0.0000435942 0.0001143600 0.0000000000
0.0000272813 0.0000000000 0.0004137701 0.0000932426 0.0001909624 0.0000000000
0.0000227344 0.0000000000 0.0007638877 0.0002150110 0.0002866110 0.0000000000
0.0000181875 0.0000000000 0.0014244854 0.0005429522 0.0002211934 0.0000000000
0.0000136406 0.0000000000 0.0018067790 0.0009683858 0.0002749787 0.0000000000
0.0000090938 0.0000000000 0.0025356436 0.0017203243 0.0000920982 0.0000000000
0.0000045469 0.0000000000 0.0022642661 0.0015735538 -0.0004700739 0.0000000000
0.0000000000 0.0000000000 0.0017199172 0.0010402587 -0.0007660691 0.0000000000
-0.0000045469 0.0000000000 0.0014236917 0.0006751172 -0.0007322489 0.0000000000
-0.0000090938 0.0000000000 0.0010595093 0.0004269566 -0.0005221527 0.0000000000
-0.0000136406 0.0000000000 0.0009574450 0.0002861575 -0.0003014804 0.0000000000
-0.0000181875 0.0000000000 0.0011022312 0.0001885537 -0.0001056261 0.0000000000
-0.0000227344 0.0000000000 0.0012414251 0.0002059165 0.0000685528 0.0000000000
-0.0000272813 0.0000000000 0.0010585887 0.0002682147 0.0002169841 0.0000000000
-0.0000318281 0.0000000000 0.0009438550 0.0002760813 0.0002770292 0.0000000000
-0.0000363750 0.0000000000 0.0008308587 0.0002452672 0.0002951101 0.0000000000
-0.0000409219 0.0000000000 0.0006960122 0.0002161744 0.0002567511 0.0000000000
-0.0000454688 0.0000000000 0.0005571318 0.0001845603 0.0002022389 0.0000000000
-0.0000500156 0.0000000000 0.0004438831 0.0001553030 0.0001555872 0.0000000000
-0.0000545625 0.0000000000 0.0003578596 0.0001312492 0.0001199081 0.0000000000
-0.0000591094 0.0000000000 0.0002915427 0.0001121716 0.0000923349 0.0000000000
-0.0000636563 0.0000000000 0.0002398024 0.0000966983 0.0000712661 0.0000000000
-0.0000682031 0.0000000000 0.0001989993 0.0000838562 0.0000551720 0.0000000000
-0.0000727500 0.0000000000 0.0001665961 0.0000731176 0.0000428637 0.0000000000
0.0000682031 -0.0000045469 0.0000000000 0.0000000000 0.0000000000 0.0000000000
0.0000636563 -0.0000045469 0.0000124535 0.0000037024 0.0000067469 0.0000000000
0.0000591094 -0.0000045469 0.0000175620 0.0000049774 0.0000095733 0.0000000000
0.0000545625 -0.0000045469 0.0000252847 0.0000068928 0.0000138127 0.0000000000
0.0000500156 -0.0000045469 0.0000372971 0.0000099321 0.0000203032 0.0000000000
0.0000454688 -0.0000045469 0.0000566645 0.0000150780 0.0000304796 0.0000000000
0.0000409219 -0.0000045469 0.0000893197 0.0000244264 0.0000468760 0.0000000000
0.0000363750 -0.0000045469 0.0001484029 0.0000429984 0.0000744370 0.0000000000
0.0000318281 -0.0000045469 0.0002622002 0.0000822993 0.0001218842 0.0000000000
0.0000272813 -0.0000045469 0.0005005830 0.0001717968 0.0002054580 0.0000000000
0.0000227344 -0.0000045469 0.0009759121 0.0003801822 0.0002989924 0.0000000000
0.0000181875 -0.0000045469 0.0017996240 0.0008666047 0.0002237512 0.0000000000
0.0000136406 -0.0000045469 0.0028404964 0.0015795775 0.0001142831 0.0000000000
0.0000090938 -0.0000045469 0.0040264534 0.0027851351 -0.0002851601 0.0000000000
0.0000045469 -0.0000045469 0.0038927232 0.0026934966 -0.0009482988 0.0000000000
0.0000000000 -0.0000045469 0.0028714392 0.0017196382 -0.0013122829 0.0000000000
-0.0000045469 -0.0000045469 0.0022992717 0.0010751671 -0.0012414090 0.0000000000
-0.0000090938 -0.0000045469 0.0017070123 0.0005958308 -0.0008955459 0.0000000000
-0.0000136406 -0.0000045469 0.0014834769 0.0003367303 -0.0005475022 0.0000000000
-0.0000181875 -0.0000045469 0.0017683686 0.0001742652 -0.0002041512 0.0000000000
-0.0000227344 -0.0000045469 0.0015507563 0.0001689558 0.0001275248 0.0000000000
-0.0000272813 -0.0000045469 0.0013119907 0.0001582427 0.0002207595 0.0000000000
-0.0000318281 -0.0000045469 0.0011494389 0.0001057087 0.0002791656 0.0000000000
-0.0000363750 -0.0000045469 0.0009931502 0.0000923405 0.0003278806 0.0000000000
-0.0000409219 -0.0000045469 0.0008240029 0.0001194189 0.0003162131 0.0000000000
-0.0000454688 -0.0000045469 0.0006570807 0.0001353400 0.0002591181 0.0000000000
-0.0000500156 -0.0000045469 0.0005171663 0.0001330682 0.0001964282 0.0000000000
-0.0000545625 -0.0000045469 0.0004124765 0.0001223657 0.0001481230 0.0000000000
-0.0000591094 -0.0000045469 0.0003328429 0.0001099376 0.0001125660 0.0000000000
-0.0000636563 -0.0000045469 0.0002714317 0.0000977217 0.0000861162 0.0000000000
-0.0000682031 -0.0000045469 0.0002235027 0.0000864443 0.0000662390 0.0000000000
-0.0000727500 -0.0000045469 0.0001858168 0.0000763352 0.0000512409 0.0000000000
0.0000682031 -0.0000090938 0.0000000000 0.0000000000 0.0000000000 0.0000000000
0.0000636563 -0.0000090938 0.0000125320 0.0000043743 0.0000062839 0.0000000000
0.0000591094 -0.0000090938 0.0000176947 0.0000060366 0.0000089449 0.0000000000
0.0000545625 -0.0000090938 0.0000255232 0.0000086257 0.0000129518 0.0000000000
0.0000500156 -0.0000090938 0.0000377546 0.0000128902 0.0000191076 0.0000000000
0.0000454688 -0.0000090938 0.0000576067 0.0000203612 0.0000287920 0.0000000000
0.0000409219 -0.0000090938 0.0000913850 0.0000343461 0.0000444261 0.0000000000
0.0000363750 -0.0000090938 0.0001533197 0.0000628278 0.0000706993 0.0000000000
0.0000318281 -0.0000090938 0.0002747633 0.0001241103 0.0001156781 0.0000000000
0.0000272813 -0.0000090938 0.0005352842 0.0002643672 0.0001934120 0.0000000000
0.0000227344 -0.0000090938 0.0010878417 0.0005866970 0.0002770210 0.0000000000
0.0000181875 -0.0000090938 0.0020445852 0.0011879702 0.0001944339 0.0000000000
0.0000136406 -0.0000090938 0.0036712751 0.0022206958 -0.0002632646 0.0000000000
0.0000090938 -0.0000090938 0.0056143362 0.0036989485 -0.0010276685 0.0000000000
0.0000045469 -0.0000090938 0.0064362001 0.0041889334 -0.0019498309 0.0000000000
0.0000000000 -0.0000090938 0.0052837936 0.0030146736 -0.0023733345 0.0000000000
-0.0000045469 -0.0000090938 0.0041996594 0.0018015702 -0.0023273021 0.0000000000
-0.0000090938 -0.0000090938 0.0034494435 0.0008813511 -0.0019353048 0.0000000000
-0.0000136406 -0.0000090938 0.0028674776 0.0002448662 -0.0012796091 0.0000000000
-0.0000181875 -0.0000090938 0.0027123104 -0.0000679207 -0.0008093325 0.0000000000
-0.0000227344 -0.0000090938 0.0020902021 -0.0001569557 -0.0002507608 0.0000000000
-0.0000272813 -0.0000090938 0.0017639487 -0.0001823198 0.0000830268 0.0000000000
-0.0000318281 -0.0000090938 0.0014848882 -0.0001086062 0.0002641940 0.0000000000
-0.0000363750 -0.0000090938 0.0012391140 -0.0000368319 0.0003366718 0.0000000000
-0.0000409219 -0.0000090938 0.0010041872 0.0000387125 0.0003346183 0.0000000000
-0.0000454688 -0.0000090938 0.0007907916 0.0000799706 0.0002858415 0.0000000000
-0.0000500156 -0.0000090938 0.0006135192 0.0001009395 0.0002264901 0.0000000000
-0.0000545625 -0.0000090938 0.0004830120 0.0001071921 0.0001740026 0.0000000000
-0.0000591094 -0.0000090938 0.0003852551 0.0001038886 0.0001328729 0.0000000000
-0.0000636563 -0.0000090938 0.0003109411 0.0000964989 0.0001016578 0.0000000000
-0.0000682031 -0.0000090938 0.0002536955 0.0000876651 0.0000780851 0.0000000000
-0.0000727500 -0.0000090938 0.0002092097 0.0000787382 0.0000603146 0.0000000000
0.0000682031 -0.0000136406 0.0000000000 0.0000000000 0.0000000000 0.0000000000
0.0000636563 -0.0000136406 0.0000123925 0.0000047385 0.0000056656 0.0000000000
0.0000591094 -0.0000136406 0.0000175204 0.0000065863 0.0000080583 0.0000000000
0.0000545625 -0.0000136406 0.0000253354 0.0000094885 0.0000116412 0.0000000000
0.0000500156 -0.0000136406 0.0000376186 0.0000143095 0.0000170898 0.0000000000
0.0000454688 -0.0000136406 0.0000577042 0.0000228411 0.0000255161 0.0000000000
0.0000409219 -0.0000136406 0.0000921761 0.0000389829 0.0000387526 0.0000000000
0.0000363750 -0.0000136406 0.0001559298 0.0000722731 0.0000599828 0.0000000000
0.0000318281 -0.0000136406 0.0002815103 0.0001448997 0.0000935840 0.0000000000
0.0000272813 -0.0000136406 0.0005499100 0.0003133698 0.0001440113 0.0000000000
0.0000227344 -0.0000136406 0.0011448100 0.0007143743 0.0001835561 0.0000000000
0.0000181875 -0.0000136406 0.0021705716 0.0014205612 0.0000429849 0.0000000000
0.0000136406 -0.0000136406 0.0039255430 0.0025487519 -0.0004600863 0.0000000000
0.0000090938 -0.0000136406 0.0067118648 0.0041471239 -0.0017673041 0.0000000000
0.0000045469 -0.0000136406 0.0090185743 0.0051403360 -0.0034141055 0.0000000000
0.0000000000 -0.0000136406 0.0086640036 0.0043132265 -0.0042203189 0.0000000000
-0.0000045469 -0.0000136406 0.0076961226 0.0027616905 -0.0043345144 0.0000000000
-0.0000090938 -0.0000136406 0.0067955841 0.0012001928 -0.0038161459 0.0000000000
-0.0000136406 -0.0000136406 0.0056606018 -0.0001298654 -0.0029124741 0.0000000000
-0.0000181875 -0.0000136406 0.0042859937 -0.0006464664 -0.0016594425 0.0000000000
-0.0000227344 -0.0000136406 0.0033452484 -0.0007689762 -0.0006547051 0.0000000000
-0.0000272813 -0.0000136406 0.0026637459 -0.0006063819 -0.0000516696 0.0000000000
-0.0000318281 -0.0000136406 0.0021203660 -0.0003773526 0.0002288011 0.0000000000
-0.0000363750 -0.0000136406 0.0016757706 -0.0002070967 0.0003297074 0.0000000000
-0.0000409219 -0.0000136406 0.0013043732 -0.0000789083 0.0003454826 0.0000000000
-0.0000454688 -0.0000136406 0.0010003025 0.0000052702 0.0003093053 0.0000000000
-0.0000500156 -0.0000136406 0.0007607399 0.0000547458 0.0002508314 0.0000000000
-0.0000545625 -0.0000136406 0.0005881535 0.0000802925 0.0001969154 0.0000000000
-0.0000591094 -0.0000136406 0.0004616264 0.0000894569 0.0001522212 0.0000000000
-0.0000636563 -0.0000136406 0.0003673022 0.0000894797 0.0001171534 0.0000000000
-0.0000682031 -0.0000136406 0.0002959440 0.0000849572 0.0000902298 0.0000000000
-0.0000727500 -0.0000136406 0.0002413895 0.0000784311 0.0000697695 0.0000000000
0.0000682031 -0.0000181875 0.0000000000 0.0000000000 0.0000000000 0.0000000000
0.0000636563 -0.0000181875 0.0000119504 0.0000050602 0.0000049482 0.0000000000
0.0000591094 -0.0000181875 0.0000168781 0.0000070780 0.0000070206 0.0000000000
0.0000545625 -0.0000181875 0.0000244012 0.0000102592 0.0000100924 0.0000000000
0.0000500156 -0.0000181875 0.0000362695 0.0000155444 0.0000146829 0.0000000000
0.0000454688 -0.0000181875 0.0000557800 0.0000248655 0.0000215741 0.0000000000
0.0000409219 -0.0000181875 0.0000895008 0.0000423648 0.0000318580 0.0000000000
0.0000363750 -0.0000181875 0.0001523174 0.0000779868 0.0000468283 0.0000000000
0.0000318281 -0.0000181875 0.0002765607 0.0001543113 0.0000661970 0.0000000000
0.0000272813 -0.0000181875 0.0005409509 0.0003270507 0.0000819756 0.0000000000
0.0000227344 -0.0000181875 0.0011430792 0.0007347117 0.0000522435 0.0000000000
0.0000181875 -0.0000181875 0.0022241192 0.0014724903 -0.0002166547 0.0000000000
0.0000136406 -0.0000181875 0.0039012346 0.0025171753 -0.0008594409 0.0000000000
0.0000090938 -0.0000181875 0.0064481762 0.0038603763 -0.0021480604 0.0000000000
0.0000045469 -0.0000181875 0.0095440641 0.0049809017 -0.0041496499 0.0000000000
0.0000000000 -0.0000181875 0.0105597350 0.0043823505 -0.0053743164 0.0000000000
-0.0000045469 -0.0000181875 0.0102811333 0.0027771313 -0.0057884226 0.0000000000
-0.0000090938 -0.0000181875 0.0093107043 0.0011014240 -0.0054119105 0.0000000000
-0.0000136406 -0.0000181875 0.0079823690 -0.0002022841 -0.0041992274 0.0000000000
-0.0000181875 -0.0000181875 0.0065358271 -0.0009895576 -0.0027462964 0.0000000000
-0.0000227344 -0.0000181875 0.0052097260 -0.0012216208 -0.0014748861 0.0000000000
-0.0000272813 -0.0000181875 0.0041028863 -0.0010895172 -0.0005737798 0.0000000000
-0.0000318281 -0.0000181875 0.0031840992 -0.0008125148 -0.0000348257 0.0000000000
-0.0000363750 -0.0000181875 0.0024048136 -0.0005171970 0.0002238717 0.0000000000
-0.0000409219 -0.0000181875 0.0017985801 -0.0002838105 0.0003133057 0.0000000000
-0.0000454688 -0.0000181875 0.0013382179 -0.0001233945 0.0003072321 0.0000000000
-0.0000500156 -0.0000181875 0.0009956796 -0.0000265149 0.0002590943 0.0000000000
-0.0000545625 -0.0000181875 0.0007541165 0.0000289513 0.0002092948 0.0000000000
-0.0000591094 -0.0000181875 0.0005807787 0.0000575729 0.0001650787 0.0000000000
-0.0000636563 -0.0000181875 0.0004542087 0.0000700629 0.0001287536 0.0000000000
-0.0000682031 -0.0000181875 0.0003603597 0.0000733660 0.0001000366 0.0000000000
-0.0000727500 -0.0000181875 0.0002899054 0.0000717239 0.0000778164 0.0000000000
0.0000682031 -0.0000227344 0.0000000000 0.0000000000 0.0000000000 0.0000000000
0.0000636563 -0.0000227344 0.0000113172 0.0000052452 0.0000041453 0.0000000000
0.0000591094 -0.0000227344 0.0000159417 0.0000073730 0.0000058504 0.0000000000
0.0000545625 -0.0000227344 0.0000229974 0.0000107335 0.0000083383 0.0000000000
0.0000500156 -0.0000227344 0.0000341342 0.0000163116 0.0000119569 0.0000000000
0.0000454688 -0.0000227344 0.0000524713 0.0000260901 0.0000171509 0.0000000000
0.0000409219 -0.0000227344 0.0000842062 0.0000442302 0.0000242960 0.0000000000
0.0000363750 -0.0000227344 0.0001432977 0.0000804261 0.0000329964 0.0000000000
0.0000318281 -0.0000227344 0.0002595653 0.0001557271 0.0000392816 0.0000000000
0.0000272813 -0.0000227344 0.0005032434 0.0003192095 0.0000267026 0.0000000000
0.0000227344 -0.0000227344 0.0010434116 0.0006839768 -0.0000626415 0.0000000000
0.0000181875 -0.0000227344 0.0021462370 0.0014016370 -0.0004060711 0.0000000000
0.0000136406 -0.0000227344 0.0036969604 0.0023004570 -0.0011657865 0.0000000000
0.0000090938 -0.0000227344 0.0058737064 0.0033214838 -0.0024803040 0.0000000000
0.0000045469 -0.0000227344 0.0084254669 0.0040455572 -0.0043197739 0.0000000000
0.0000000000 -0.0000227344 0.0100139232 0.0037026005 -0.0057182685 0.0000000000
-0.0000045469 -0.0000227344 0.0102193208 0.0024994273 -0.0060546560 0.0000000000
-0.0000090938 -0.0000227344 0.0097485707 0.0011142428 -0.0056061913 0.0000000000
-0.0000136406 -0.0000227344 0.0088130506 -0.0000757548 -0.0045879887 0.0000000000
-0.0000181875 -0.0000227344 0.0076074501 -0.0008615737 -0.0033224006 0.0000000000
-0.0000227344 -0.0000227344 0.0063328470 -0.0012241958 -0.0021119417 0.0000000000
-0.0000272813 -0.0000227344 0.0051467687 -0.0012731316 -0.0011283663 0.0000000000
-0.0000318281 -0.0000227344 0.0041058587 -0.0011183886 -0.0003923107 0.0000000000
-0.0000363750 -0.0000227344 0.0031157871 -0.0007813839 0.0000580070 0.0000000000
-0.0000409219 -0.0000227344 0.0023078336 -0.0004664916 0.0002369143 0.0000000000
-0.0000454688 -0.0000227344 0.0016993733 -0.0002445447 0.0002719232 0.0000000000
-0.0000500156 -0.0000227344 0.0012553906 -0.0001065797 0.0002449722 0.0000000000
-0.0000545625 -0.0000227344 0.0009424597 -0.0000240243 0.0002062987 0.0000000000
-0.0000591094 -0.0000227344 0.0007189624 0.0000229893 0.0001674647 0.0000000000
-0.0000636563 -0.0000227344 0.0005566499 0.0000477034 0.0001333159 0.0000000000
-0.0000682031 -0.0000227344 0.0004372596 0.0000591212 0.0001051484 0.0000000000
-0.0000727500 -0.0000227344 0.0003484017 0.0000627541 0.0000826986 0.0000000000
0.0000682031 -0.0000272813 0.0000000000 0.0000000000 0.0000000000 0.0000000000
0.0000636563 -0.0000272813 0.0000105403 0.0000052482 0.0000033031 0.0000000000
0.0000591094 -0.0000272813 0.0000147916 0.0000073924 0.0000046219 0.0000000000
0.0000545625 -0.0000272813 0.0000212669 0.0000107778 0.0000064945 0.0000000000
0.0000500156 -0.0000272813 0.0000314735 0.0000163721 0.0000091051 0.0000000000
0.0000454688 -0.0000272813 0.0000482589 0.0000260915 0.0000125777 0.0000000000
0.0000409219 -0.0000272813 0.0000772352 0.0000438464 0.0000166741 0.0000000000
0.0000363750 -0.0000272813 0.0001308577 0.0000784198 0.0000196975 0.0000000000
0.0000318281 -0.0000272813 0.0002349585 0.0001478995 0.0000153463 0.0000000000
0.0000272813 -0.0000272813 0.0004479132 0.0002916844 -0.0000165429 0.0000000000
0.0000227344 -0.0000272813 0.0009015659 0.0005922630 -0.0001357198 0.0000000000
0.0000181875 -0.0000272813 0.0018865624 0.0012067908 -0.0005087188 0.0000000000
0.0000136406 -0.0000272813 0.0033160522 0.0019692830 -0.0012658509 0.0000000000
0.0000090938 -0.0000272813 0.0051061854 0.0026941637 -0.0024537337 0.0000000000
0.0000045469 -0.0000272813 0.0070638206 0.0030907024 -0.0039454851 0.0000000000
0.0000000000 -0.0000272813 0.0085363635 0.0027852351 -0.0051572520 0.0000000000
-0.0000045469 -0.0000272813 0.0089049057 0.0018474335 -0.0053984703 0.0000000000
-0.0000090938 -0.0000272813 0.0086600770 0.0008198263 -0.0049635506 0.0000000000
-0.0000136406 -0.0000272813 0.0080278243 -0.0000427405 -0.0041151302 0.0000000000
-0.0000181875 -0.0000272813 0.0071222856 -0.0006506854 -0.0030833871 0.0000000000
-0.0000227344 -0.0000272813 0.0060997782 -0.0009891889 -0.0020688916 0.0000000000
-0.0000272813 -0.0000272813 0.0050990379 -0.0010963320 -0.0011883263 0.0000000000
-0.0000318281 -0.0000272813 0.0041729464 -0.0010278024 -0.0004758445 0.0000000000
-0.0000363750 -0.0000272813 0.0032740871 -0.0007655922 0.0000104910 0.0000000000
-0.0000409219 -0.0000272813 0.0024644172 -0.0004631630 0.0002120719 0.0000000000
-0.0000454688 -0.0000272813 0.0018331866 -0.0002444143 0.0002577709 0.0000000000
-0.0000500156 -0.0000272813 0.0013685833 -0.0001064739 0.0002403141 0.0000000000
-0.0000545625 -0.0000272813 0.0010351303 -0.0000230872 0.0002071347 0.0000000000
-0.0000591094 -0.0000272813 0.0007933099 0.0000248380 0.0001711788 0.0000000000
-0.0000636563 -0.0000272813 0.0006159826 0.0000505047 0.0001382120 0.0000000000
-0.0000682031 -0.0000272813 0.0004845394 0.0000625159 0.0001102802 0.0000000000
-0.0000727500 -0.0000272813 0.0003861658 0.0000664608 0.0000875532 0.0000000000
0.0000682031 -0.0000318281 0.0000000000 0.0000000000 0.0000000000 0.0000000000
0.0000636563 -0.0000318281 0.0000096587 0.0000050809 0.0000024805 0.0000000000
0.0000591094 -0.0000318281 0.0000134917 0.0000071527 0.0000034246 0.0000000000
0.0000545625 -0.0000318281 0.0000193128 0.0000104134 0.0000047091 0.0000000000
0.0000500156 -0.0000318281 0.0000284637 0.0000157658 0.0000063710 0.0000000000
0.0000454688 -0.0000318281 0.0000434602 0.0000249551 0.0000082791 0.0000000000
0.0000409219 -0.0000318281 0.0000692070 0.0000414354 0.0000097330 0.0000000000
0.0000363750 -0.0000318281 0.0001163437 0.0000726617 0.0000082359 0.0000000000
0.0000318281 -0.0000318281 0.0002061747 0.0001331001 -0.0000035046 0.0000000000
0.0000272813 -0.0000318281 0.0003845915 0.0002520170 -0.0000456359 0.0000000000
0.0000227344 -0.0000318281 0.0007484520 0.0004847724 -0.0001707805 0.0000000000
0.0000181875 -0.0000318281 0.0014957203 0.0009239454 -0.0005086106 0.0000000000
0.0000136406 -0.0000318281 0.0028077151 0.0015801380 -0.0012435205 0.0000000000
0.0000090938 -0.0000318281 0.0042860866 0.0020965088 -0.0022551985 0.0000000000
0.0000045469 -0.0000318281 0.0058059720 0.0023018492 -0.0034362283 0.0000000000
0.0000000000 -0.0000318281 0.0069420156 0.0019899243 -0.0043645242 0.0000000000
-0.0000045469 -0.0000318281 0.0072955009 0.0012444463 -0.0045363761 0.0000000000
-0.0000090938 -0.0000318281 0.0071235555 0.0004739255 -0.0041095827 0.0000000000
-0.0000136406 -0.0000318281 0.0066648135 -0.0001309056 -0.0033828185 0.0000000000
-0.0000181875 -0.0000318281 0.0059898716 -0.0005526255 -0.0025284764 0.0000000000
-0.0000227344 -0.0000318281 0.0052140015 -0.0007896194 -0.0016882593 0.0000000000
-0.0000272813 -0.0000318281 0.0044217936 -0.0008672581 -0.0009425072 0.0000000000
-0.0000318281 -0.0000318281 0.0036755729 -0.0008011751 -0.0003358145 0.0000000000
-0.0000363750 -0.0000318281 0.0029548908 -0.0005929764 0.0000799698 0.0000000000
-0.0000409219 -0.0000318281 0.0022753126 -0.0003429043 0.0002493831 0.0000000000
-0.0000454688 -0.0000318281 0.0017220274 -0.0001604493 0.0002782014 0.0000000000
-0.0000500156 -0.0000318281 0.0013087141 -0.0000464759 0.0002562142 0.0000000000
-0.0000545625 -0.0000318281 0.0010047262 0.0000208184 0.0002203792 0.0000000000
-0.0000591094 -0.0000318281 0.0007797162 0.0000579506 0.0001826009 0.0000000000
-0.0000636563 -0.0000318281 0.0006117567 0.0000761007 0.0001481182 0.0000000000
-0.0000682031 -0.0000318281 0.0004853726 0.0000827928 0.0001187977 0.0000000000
-0.0000727500 -0.0000318281 0.0003895605 0.0000828278 0.0000948325 0.0000000000
0.0000682031 -0.0000363750 0.0000000000 0.0000000000 0.0000000000 0.0000000000
0.0000636563 -0.0000363750 0.0000087148 0.0000047727 0.0000017250 0.0000000000
0.0000591094 -0.0000363750 0.0000121093 0.0000067027 0.0000023329 0.0000000000
0.0000545625 -0.0000363750 0.0000172436 0.0000097233 0.0000030989 0.0000000000
0.0000500156 -0.0000363750 0.0000252830 0.0000146387 0.0000039475 0.0000000000
0.0000454688 -0.0000363750 0.0000383892 0.0000229618 0.0000045648 0.0000000000
0.0000409219 -0.0000363750 0.0000607085 0.0000375921 0.0000039791 0.0000000000
0.0000363750 -0.0000363750 0.0001010098 0.0000645107 -0.0000006456 0.0000000000
0.0000318281 -0.0000363750 0.0001761576 0.0001146337 -0.0000165053 0.0000000000
0.0000272813 -0.0000363750 0.0003206850 0.0002084310 -0.0000614992 0.0000000000
0.0000227344 -0.0000363750 0.0006027378 0.0003807921 -0.0001776511 0.0000000000
0.0000181875 -0.0000363750 0.0011502725 0.0006815400 -0.0004571695 0.0000000000
0.0000136406 -0.0000363750 0.0021671432 0.0011462061 -0.0010726470 0.0000000000
0.0000090938 -0.0000363750 0.0034643703 0.0015602564 -0.0019739592 0.0000000000
0.0000045469 -0.0000363750 0.0046760169 0.0016721175 -0.0029160469 0.0000000000
0.0000000000 -0.0000363750 0.0055781437 0.0013939186 -0.0036417921 0.0000000000
-0.0000045469 -0.0000363750 0.0058934731 0.0007974404 -0.0037970527 0.0000000000
-0.0000090938 -0.0000363750 0.0057050291 0.0001802985 -0.0033728211 0.0000000000
-0.0000136406 -0.0000363750 0.0053517270 -0.0002600638 -0.0027340993 0.0000000000
-0.0000181875 -0.0000363750 0.0048473853 -0.0005435975 -0.0020106432 0.0000000000
-0.0000227344 -0.0000363750 0.0042511099 -0.0006910855 -0.0012999320 0.0000000000
-0.0000272813 -0.0000363750 0.0036382319 -0.0007103995 -0.0006745369 0.0000000000
-0.0000318281 -0.0000363750 0.0030563480 -0.0006224989 -0.0001761678 0.0000000000
-0.0000363750 -0.0000363750 0.0024953394 -0.0004370150 0.0001539900 0.0000000000
-0.0000409219 -0.0000363750 0.0019606857 -0.0002318469 0.0002830218 0.0000000000
-0.0000454688 -0.0000363750 0.0015112900 -0.0000827079 0.0002954886 0.0000000000
-0.0000500156 -0.0000363750 0.0011709587 0.0000090124 0.0002694857 0.0000000000
-0.0000545625 -0.0000363750 0.0009145511 0.0000617009 0.0002316683 0.0000000000
-0.0000591094 -0.0000363750 0.0007204602 0.0000889541 0.0001926181 0.0000000000
-0.0000636563 -0.0000363750 0.0005727293 0.0001003034 0.0001570914 0.0000000000
-0.0000682031 -0.0000363750 0.0004595735 0.0001021084 0.0001267498 0.0000000000
-0.0000727500 -0.0000363750 0.0003724916 0.0000985548 0.0001018004 0.0000000000
0.0000682031 -0.0000409219 0.0000000000 0.0000000000 0.0000000000 0.0000000000
0.0000636563 -0.0000409219 0.0000077518 0.0000043612 0.0000010690 0.0000000000
0.0000591094 -0.0000409219 0.0000107080 0.0000061029 0.0000013953 0.0000000000
0.0000545625 -0.0000409219 0.0000151588 0.0000088089 0.0000017382 0.0000000000
0.0000500156 -0.0000409219 0.0000220946 0.0000131673 0.0000019464 0.0000000000
0.0000454688 -0.0000409219 0.0000333268 0.0000204374 0.0000015996 0.0000000000
0.0000409219 -0.0000409219 0.0000522658 0.0000329473 -0.0000003794 0.0000000000
0.0000363750 -0.0000409219 0.0000859196 0.0000552935 -0.0000068050 0.0000000000
0.0000318281 -0.0000409219 0.0001472119 0.0000953390 -0.0000241191 0.0000000000
0.0000272813 -0.0000409219 0.0002613055 0.0001667626 -0.0000670089 0.0000000000
0.0000227344 -0.0000409219 0.0004747244 0.0002905106 -0.0001668799 0.0000000000
0.0000181875 -0.0000409219 0.0008683572 0.0004918678 -0.0003861151 0.0000000000
0.0000136406 -0.0000409219 0.0015614653 0.0007795803 -0.0008300752 0.0000000000
0.0000090938 -0.0000409219 0.0026322966 0.0010853247 -0.0015924768 0.0000000000
0.0000045469 -0.0000409219 0.0036668203 0.0011670788 -0.0023926415 0.0000000000
0.0000000000 -0.0000409219 0.0044238203 0.0009458069 -0.0029884139 0.0000000000
-0.0000045469 -0.0000409219 0.0047482974 0.0004832934 -0.0031642201 0.0000000000
-0.0000090938 -0.0000409219 0.0046008673 -0.0000260919 -0.0028280690 0.0000000000
-0.0000136406 -0.0000409219 0.0042592261 -0.0003811589 -0.0022351977 0.0000000000
-0.0000181875 -0.0000409219 0.0038729716 -0.0005702936 -0.0016118309 0.0000000000
-0.0000227344 -0.0000409219 0.0034171831 -0.0006448869 -0.0010082067 0.0000000000
-0.0000272813 -0.0000409219 0.0029462473 -0.0006189874 -0.0004854633 0.0000000000
-0.0000318281 -0.0000409219 0.0024956461 -0.0005120424 -0.0000771214 0.0000000000
-0.0000363750 -0.0000409219 0.0020607452 -0.0003403901 0.0001829779 0.0000000000
-0.0000409219 -0.0000409219 0.0016443203 -0.0001665711 0.0002812492 0.0000000000
-0.0000454688 -0.0000409219 0.0012922664 -0.0000412887 0.0002896103 0.0000000000
-0.0000500156 -0.0000409219 0.0010211212 0.0000361736 0.0002661353 0.0000000000
-0.0000545625 -0.0000409219 0.0008117228 0.0000805523 0.0002311136 0.0000000000
-0.0000591094 -0.0000409219 0.0006496025 0.0001029015 0.0001941515 0.0000000000
-0.0000636563 -0.0000409219 0.0005236469 0.0001112225 0.0001599901 0.0000000000
-0.0000682031 -0.0000409219 0.0004254192 0.0001111286 0.0001303400 0.0000000000
-0.0000727500 -0.0000409219 0.0003485368 0.0001062272 0.0001056528 0.0000000000
0.0000682031 -0.0000454688 0.0000000000 0.0000000000 0.0000000000 0.0000000000
0.0000636563 -0.0000454688 0.0000068067 0.0000038890 0.0000005290 0.0000000000
0.0000591094 -0.0000454688 0.0000093433 0.0000054162 0.0000006366 0.0000000000
0.0000545625 -0.0000454688 0.0000131436 0.0000077709 0.0000006579 0.0000000000
0.0000500156 -0.0000454688 0.0000190355 0.0000115228 0.0000004036 0.0000000000
0.0000454688 -0.0000454688 0.0000285043 0.0000176850 -0.0000005878 0.0000000000
0.0000409219 -0.0000454688 0.0000442893 0.0000280627 -0.0000033813 0.0000000000
0.0000363750 -0.0000454688 0.0000718619 0.0000460668 -0.0000105397 0.0000000000
0.0000318281 -0.0000454688 0.0001208822 0.0000771647 -0.0000274530 0.0000000000
0.0000272813 -0.0000454688 0.0002092634 0.0001301881 -0.0000655346 0.0000000000
0.0000227344 -0.0000454688 0.0003681950 0.0002173001 -0.0001472832 0.0000000000
0.0000181875 -0.0000454688 0.0006482068 0.0003505193 -0.0003135360 0.0000000000
0.0000136406 -0.0000454688 0.0011178962 0.0005280623 -0.0006268717 0.0000000000
0.0000090938 -0.0000454688 0.0018291574 0.0007063140 -0.0011445543 0.0000000000
0.0000045469 -0.0000454688 0.0027386577 0.0007783587 -0.0018435369 0.0000000000
0.0000000000 -0.0000454688 0.0034247222 0.0006165019 -0.0023746473 0.0000000000
-0.0000045469 -0.0000454688 0.0037617648 0.0002649780 -0.0025735898 0.0000000000
-0.0000090938 -0.0000454688 0.0037346186 -0.0001395435 -0.0023821022 0.0000000000
-0.0000136406 -0.0000454688 0.0034291228 -0.0004457629 -0.0018805762 0.0000000000
-0.0000181875 -0.0000454688 0.0030905577 -0.0005844010 -0.0013267919 0.0000000000
-0.0000227344 -0.0000454688 0.0027388523 -0.0006128482 -0.0008151979 0.0000000000
-0.0000272813 -0.0000454688 0.0023748773 -0.0005602411 -0.0003762226 0.0000000000
-0.0000318281 -0.0000454688 0.0020244278 -0.0004442366 -0.0000394561 0.0000000000
-0.0000363750 -0.0000454688 0.0016850350 -0.0002862125 0.0001686060 0.0000000000
-0.0000409219 -0.0000454688 0.0013612355 -0.0001363267 0.0002484817 0.0000000000
-0.0000454688 -0.0000454688 0.0010926050 -0.0000289015 0.0002627573 0.0000000000
-0.0000500156 -0.0000454688 0.0008803552 0.0000397623 0.0002469357 0.0000000000
-0.0000545625 -0.0000454688 0.0007123433 0.0000803383 0.0002185440 0.0000000000
-0.0000591094 -0.0000454688 0.0005792633 0.0001014220 0.0001867165 0.0000000000
-0.0000636563 -0.0000454688 0.0004737201 0.0001097288 0.0001561734 0.0000000000
-0.0000682031 -0.0000454688 0.0003897980 0.0001100859 0.0001289265 0.0000000000
-0.0000727500 -0.0000454688 0.0003230165 0.0001057761 0.0001057952 0.0000000000
0.0000682031 -0.0000500156 0.0000000000 0.0000000000 0.0000000000 0.0000000000
0.0000636563 -0.0000500156 0.0000059082 0.0000033924 0.0000001118 0.0000000000
0.0000591094 -0.0000500156 0.0000080583 0.0000046991 0.0000000601 0.0000000000
0.0000545625 -0.0000500156 0.0000112656 0.0000066995 -0.0000001391 0.0000000000
0.0000500156 -0.0000500156 0.0000162067 0.0000098525 -0.0000006923 0.0000000000
0.0000454688 -0.0000500156 0.0000240847 0.0000149500 -0.0000020523 0.0000000000
0.0000409219 -0.0000500156 0.0000370596 0.0000233570 -0.0000051946 0.0000000000
0.0000363750 -0.0000500156 0.0000593293 0.0000375425 -0.0000123165 0.0000000000
0.0000318281 -0.0000500156 0.0000979989 0.0000612233 -0.0000277282 0.0000000000
0.0000272813 -0.0000500156 0.0001656561 0.0000999896 -0.0000599813 0.0000000000
0.0000227344 -0.0000500156 0.0002830870 0.0001607561 -0.0001247814 0.0000000000
0.0000181875 -0.0000500156 0.0004819173 0.0002489150 -0.0002485478 0.0000000000
0.0000136406 -0.0000500156 0.0008022260 0.0003597622 -0.0004685062 0.0000000000
0.0000090938 -0.0000500156 0.0012709358 0.0004640723 -0.0008146583 0.0000000000
0.0000045469 -0.0000500156 0.0018726148 0.0005007530 -0.0012786437 0.0000000000
0.0000000000 -0.0000500156 0.0025125456 0.0003956103 -0.0017694850 0.0000000000
-0.0000045469 -0.0000500156 0.0028998511 0.0001362457 -0.0020207629 0.0000000000
-0.0000090938 -0.0000500156 0.0029704308 -0.0001787302 -0.0019479805 0.0000000000
-0.0000136406 -0.0000500156 0.0027999108 -0.0004372464 -0.0016140165 0.0000000000
-0.0000181875 -0.0000500156 0.0024896156 -0.0005671311 -0.0011373769 0.0000000000
-0.0000227344 -0.0000500156 0.0021940285 -0.0005741523 -0.0006947297 0.0000000000
-0.0000272813 -0.0000500156 0.0019070299 -0.0005098311 -0.0003247152 0.0000000000
-0.0000318281 -0.0000500156 0.0016308410 -0.0003947373 -0.0000448164 0.0000000000
-0.0000363750 -0.0000500156 0.0013636028 -0.0002528895 0.0001251616 0.0000000000
-0.0000409219 -0.0000500156 0.0011184623 -0.0001257018 0.0001999557 0.0000000000
-0.0000454688 -0.0000500156 0.0009164368 -0.0000324074 0.0002230891 0.0000000000
-0.0000500156 -0.0000500156 0.0007526522 0.0000299063 0.0002171629 0.0000000000
-0.0000545625 -0.0000500156 0.0006197855 0.0000686500 0.0001974627 0.0000000000
-0.0000591094 -0.0000500156 0.0005121749 0.0000902068 0.0001724835 0.0000000000
-0.0000636563 -0.0000500156 0.0004249728 0.0001000309 0.0001469699 0.0000000000
-0.0000682031 -0.0000500156 0.0003543009 0.0001021767 0.0001233663 0.0000000000
-0.0000727500 -0.0000500156 0.0002970308 0.0000995719 0.0001026414 0.0000000000
0.0000682031 -0.0000545625 0.0000000000 0.0000000000 0.0000000000 0.0000000000
0.0000636563 -0.0000545625 0.0000050789 0.0000029016 -0.0000001931 0.0000000000
0.0000591094 -0.0000545625 0.0000068821 0.0000039981 -0.0000003495 0.0000000000
0.0000545625 -0.0000545625 0.0000095604 0.0000056653 -0.0000006879 0.0000000000
0.0000500156 -0.0000545625 0.0000136616 0.0000082629 -0.0000014091 0.0000000000
0.0000454688 -0.0000545625 0.0000201442 0.0000123998 -0.0000029305 0.0000000000
0.0000409219 -0.0000545625 0.0000306926 0.0000190887 -0.0000061008 0.0000000000
0.0000363750 -0.0000545625 0.0000484831 0.0000300797 -0.0000127262 0.0000000000
0.0000318281 -0.0000545625 0.0000786801 0.0000478609 -0.0000261506 0.0000000000
0.0000272813 -0.0000545625 0.0001300644 0.0000759141 -0.0000526245 0.0000000000
0.0000227344 -0.0000545625 0.0002164328 0.0001181007 -0.0001029290 0.0000000000
0.0000181875 -0.0000545625 0.0003577026 0.0001765891 -0.0001940780 0.0000000000
0.0000136406 -0.0000545625 0.0005776229 0.0002466646 -0.0003483312 0.0000000000
0.0000090938 -0.0000545625 0.0008906639 0.0003092204 -0.0005818042 0.0000000000
0.0000045469 -0.0000545625 0.0012865622 0.0003280757 -0.0008875303 0.0000000000
0.0000000000 -0.0000545625 0.0017119761 0.0002607062 -0.0012133720 0.0000000000
-0.0000045469 -0.0000545625 0.0020719168 0.0000859050 -0.0014593685 0.0000000000
-0.0000090938 -0.0000545625 0.0022579804 -0.0001578634 -0.0015129974 0.0000000000
-0.0000136406 -0.0000545625 0.0022146773 -0.0003742933 -0.0013311358 0.0000000000
-0.0000181875 -0.0000545625 0.0020195407 -0.0004999568 -0.0009998678 0.0000000000
-0.0000227344 -0.0000545625 0.0017593234 -0.0005170339 -0.0006247323 0.0000000000
-0.0000272813 -0.0000545625 0.0015182420 -0.0004539815 -0.0003077124 0.0000000000
-0.0000318281 -0.0000545625 0.0012971517 -0.0003482815 -0.0000743513 0.0000000000
-0.0000363750 -0.0000545625 0.0010904230 -0.0002277085 0.0000702992 0.0000000000
-0.0000409219 -0.0000545625 0.0009121805 -0.0001230137 0.0001468934 0.0000000000
-0.0000454688 -0.0000545625 0.0007623608 -0.0000423643 0.0001785862 0.0000000000
-0.0000500156 -0.0000545625 0.0006377936 0.0000145049 0.0001825461 0.0000000000
-0.0000545625 -0.0000545625 0.0005343495 0.0000518771 0.0001717630 0.0000000000
-0.0000591094 -0.0000545625 0.0004486495 0.0000743200 0.0001541055 0.0000000000
-0.0000636563 -0.0000545625 0.0003777399 0.0000860348 0.0001342619 0.0000000000
-0.0000682031 -0.0000545625 0.0003191415 0.0000904136 0.0001148204 0.0000000000
-0.0000727500 -0.0000545625 0.0002707802 0.0000899622 0.0000970944 0.0000000000
0.0000682031 -0.0000591094 0.0000000000 0.0000000000 0.0000000000 0.0000000000
0.0000636563 -0.0000591094 0.0000043280 0.0000024403 -0.0000003995 0.0000000000
0.0000591094 -0.0000591094 0.0000058286 0.0000033456 -0.0000006186 0.0000000000
0.0000545625 -0.0000591094 0.0000080471 0.0000047120 -0.0000010304 0.0000000000
0.0000500156 -0.0000591094 0.0000114229 0.0000068196 -0.0000018210 0.0000000000
0.0000454688 -0.0000591094 0.0000167136 0.0000101284 -0.0000033579 0.0000000000
0.0000409219 -0.0000591094 0.0000252189 0.0000153772 -0.0000063511 0.0000000000
0.0000363750 -0.0000591094 0.0000393186 0.0000237947 -0.0000122483 0.0000000000
0.0000318281 -0.0000591094 0.0000627428 0.0000370238 -0.0000235782 0.0000000000
0.0000272813 -0.0000591094 0.0001015908 0.0000572176 -0.0000448469 0.0000000000
0.0000227344 -0.0000591094 0.0001650438 0.0000864975 -0.0000833978 0.0000000000
0.0000181875 -0.0000591094 0.0002657382 0.0001255475 -0.0001501764 0.0000000000
0.0000136406 -0.0000591094 0.0004180445 0.0001705149 -0.0002586787 0.0000000000
0.0000090938 -0.0000591094 0.0006300025 0.0002090311 -0.0004177735 0.0000000000
0.0000045469 -0.0000591094 0.0008950428 0.0002193755 -0.0006224280 0.0000000000
0.0000000000 -0.0000591094 0.0011823455 0.0001765424 -0.0008421344 0.0000000000
-0.0000045469 -0.0000591094 0.0014362927 0.0000662343 -0.0010185528 0.0000000000
-0.0000090938 -0.0000591094 0.0015968201 -0.0000949587 -0.0010870190 0.0000000000
-0.0000136406 -0.0000591094 0.0016310383 -0.0002596549 -0.0010154001 0.0000000000
-0.0000181875 -0.0000591094 0.0015467569 -0.0003766331 -0.0008219802 0.0000000000
-0.0000227344 -0.0000591094 0.0013839074 -0.0004160370 -0.0005647336 0.0000000000
-0.0000272813 -0.0000591094 0.0011915541 -0.0003799815 -0.0003098100 0.0000000000
-0.0000318281 -0.0000591094 0.0010165814 -0.0002988447 -0.0001116117 0.0000000000
-0.0000363750 -0.0000591094 0.0008673836 -0.0002067840 0.0000191867 0.0000000000
-0.0000409219 -0.0000591094 0.0007389130 -0.0001222662 0.0000961693 0.0000000000
-0.0000454688 -0.0000591094 0.0006289519 -0.0000533326 0.0001344051 0.0000000000
-0.0000500156 -0.0000591094 0.0005355109 -0.0000019564 0.0001468589 0.0000000000
-0.0000545625 -0.0000591094 0.0004562119 0.0000338277 0.0001442782 0.0000000000
-0.0000591094 -0.0000591094 0.0003890959 0.0000568861 0.0001336555 0.0000000000
-0.0000636563 -0.0000591094 0.0003324194 0.0000703284 0.0001194501 0.0000000000
-0.0000682031 -0.0000591094 0.0002846454 0.0000768530 0.0001043351 0.0000000000
-0.0000727500 -0.0000591094 0.0002444716 0.0000785767 0.0000898202 0.0000000000
0.0000682031 -0.0000636563 0.0000000000 0.0000000000 0.0000000000 0.0000000000
0.0000636563 -0.0000636563 0.0000036619 0.0000020218 -0.0000005249 0.0000000000
0.0000591094 -0.0000636563 0.0000049023 0.0000027596 -0.0000007736 0.0000000000
0.0000545625 -0.0000636563 0.0000067283 0.0000038665 -0.0000012113 0.0000000000
0.0000500156 -0.0000636563 0.0000094906 0.0000055564 -0.0000020030 0.0000000000
0.0000454688 -0.0000636563 0.0000137814 0.0000081747 -0.0000034613 0.0000000000
0.0000409219 -0.0000636563 0.0000205972 0.0000122529 -0.0000061663 0.0000000000
0.0000363750 -0.0000636563 0.0000317123 0.0000186496 -0.0000112525 0.0000000000
0.0000318281 -0.0000636563 0.0000498101 0.0000284438 -0.0000206093 0.0000000000
0.0000272813 -0.0000636563 0.0000791273 0.0000429583 -0.0000374448 0.0000000000
0.0000227344 -0.0000636563 0.0001258124 0.0000633457 -0.0000667667 0.0000000000
0.0000181875 -0.0000636563 0.0001979660 0.0000896530 -0.0001156479 0.0000000000
0.0000136406 -0.0000636563 0.0003044671 0.0001189828 -0.0001923911 0.0000000000
0.0000090938 -0.0000636563 0.0004499574 0.0001433651 -0.0003020277 0.0000000000
0.0000045469 -0.0000636563 0.0006304341 0.0001495271 -0.0004412442 0.0000000000
0.0000000000 -0.0000636563 0.0008275666 0.0001224181 -0.0005917876 0.0000000000
-0.0000045469 -0.0000636563 0.0010085341 0.0000523798 -0.0007192223 0.0000000000
-0.0000090938 -0.0000636563 0.0011354762 -0.0000533973 -0.0007830381 0.0000000000
-0.0000136406 -0.0000636563 0.0011837413 -0.0001683281 -0.0007583608 0.0000000000
-0.0000181875 -0.0000636563 0.0011513608 -0.0002603448 -0.0006484344 0.0000000000
-0.0000227344 -0.0000636563 0.0010578396 -0.0003061167 -0.0004828745 0.0000000000
-0.0000272813 -0.0000636563 0.0009325458 -0.0002997327 -0.0003026418 0.0000000000
-0.0000318281 -0.0000636563 0.0008028327 -0.0002533313 -0.0001422755 0.0000000000
-0.0000363750 -0.0000636563 0.0006894299 -0.0001872028 -0.0000234823 0.0000000000
-0.0000409219 -0.0000636563 0.0005955213 -0.0001205708 0.0000514532 0.0000000000
-0.0000454688 -0.0000636563 0.0005150045 -0.0000626195 0.0000936841 0.0000000000
-0.0000500156 -0.0000636563 0.0004456203 -0.0000169643 0.0001126897 0.0000000000
-0.0000545625 -0.0000636563 0.0003856959 0.0000166387 0.0001170096 0.0000000000
-0.0000591094 -0.0000636563 0.0003340636 0.0000397739 0.0001126853 0.0000000000
-0.0000636563 -0.0000636563 0.0002895534 0.0000544877 0.0001037186 0.0000000000
-0.0000682031 -0.0000636563 0.0002513010 0.0000628245 0.0000927572 0.0000000000
-0.0000727500 -0.0000636563 0.0002185166 0.0000665209 0.0000814483 0.0000000000
0.0000682031 -0.0000682031 0.0000023669 0.0000012474 -0.0000004303 0.0000000000
0.0000636563 -0.0000682031 0.0000030809 0.0000016540 -0.0000005869 0.0000000000
0.0000591094 -0.0000682031 0.0000041010 0.0000022497 -0.0000008418 0.0000000000
0.0000545625 -0.0000682031 0.0000055971 0.0000031383 -0.0000012731 0.0000000000
0.0000500156 -0.0000682031 0.0000078466 0.0000044828 -0.0000020225 0.0000000000
0.0000454688 -0.0000682031 0.0000113124 0.0000065385 -0.0000033501 0.0000000000
0.0000409219 -0.0000682031 0.0000167533 0.0000096914 -0.0000057215 0.0000000000
0.0000363750 -0.0000682031 0.0000254894 0.0000145314 -0.0000100141 0.0000000000
0.0000318281 -0.0000682031 0.0000394503 0.0000217714 -0.0000176210 0.0000000000
0.0000272813 -0.0000682031 0.0000615934 0.0000322239 -0.0000308295 0.0000000000
0.0000227344 -0.0000682031 0.0000960579 0.0000465081 -0.0000530538 0.0000000000
0.0000181875 -0.0000682031 0.0001481262 0.0000644429 -0.0000889057 0.0000000000
0.0000136406 -0.0000682031 0.0002234182 0.0000839149 -0.0001436273 0.0000000000
0.0000090938 -0.0000682031 0.0003247196 0.0000997929 -0.0002201413 0.0000000000
0.0000045469 -0.0000682031 0.0004495831 0.0001038185 -0.0003163120 0.0000000000
0.0000000000 -0.0000682031 0.0005870783 0.0000866324 -0.0004211797 0.0000000000
-0.0000045469 -0.0000682031 0.0007173127 0.0000417115 -0.0005139355 0.0000000000
-0.0000090938 -0.0000682031 0.0008162850 -0.0000281859 -0.0005689602 0.0000000000
-0.0000136406 -0.0000682031 0.0008659868 -0.0001080735 -0.0005679245 0.0000000000
-0.0000181875 -0.0000682031 0.0008612096 -0.0001783486 -0.0005080214 0.0000000000
-0.0000227344 -0.0000682031 0.0008104959 -0.0002218426 -0.0004035411 0.0000000000
-0.0000272813 -0.0000682031 0.0007308670 -0.0002306752 -0.0002787903 0.0000000000
-0.0000318281 -0.0000682031 0.0006409723 -0.0002087631 -0.0001583062 0.0000000000
-0.0000363750 -0.0000682031 0.0005543945 -0.0001666720 -0.0000580418 0.0000000000
-0.0000409219 -0.0000682031 0.0004799475 -0.0001164891 0.0000141735 0.0000000000
-0.0000454688 -0.0000682031 0.0004196327 -0.0000690598 0.0000581480 0.0000000000
-0.0000500156 -0.0000682031 0.0003680710 -0.0000293370 0.0000816270 0.0000000000
-0.0000545625 -0.0000682031 0.0003232287 0.0000015757 0.0000913368 0.0000000000
-0.0000591094 -0.0000682031 0.0002839875 0.0000241053 0.0000922222 0.0000000000
-0.0000636563 -0.0000682031 0.0002496311 0.0000394928 0.0000878545 0.0000000000
-0.0000682031 -0.0000682031 0.0002195731 0.0000491814 0.0000807431 0.0000000000
-0.0000727500 -0.0000682031 0.0001932981 0.0000545048 0.0000724487 0.0000000000
0.0000682031 -0.0000727500 0.0000019937 0.0000010129 -0.0000004470 0.0000000000
0.0000636563 -0.0000727500 0.0000025811 0.0000013401 -0.0000006020 0.0000000000
0.0000591094 -0.0000727500 0.0000034183 0.0000018182 -0.0000008487 0.0000000000
0.0000545625 -0.0000727500 0.0000046404 0.0000025270 -0.0000012528 0.0000000000
0.0000500156 -0.0000727500 0.0000064688 0.0000035919 -0.0000019362 0.0000000000
0.0000454688 -0.0000727500 0.0000092623 0.0000052008 -0.0000031095 0.0000000000
0.0000409219 -0.0000727500 0.0000135988 0.0000076310 -0.0000051440 0.0000000000
0.0000363750 -0.0000727500 0.0000204617 0.0000112942 -0.0000087086 0.0000000000
0.0000318281 -0.0000727500 0.0000312420 0.0000166577 -0.0000148358 0.0000000000
0.0000272813 -0.0000727500 0.0000480176 0.0000242273 -0.0000251509 0.0000000000
0.0000227344 -0.0000727500 0.0000736081 0.0000343346 -0.0000419923 0.0000000000
0.0000181875 -0.0000727500 0.0001115362 0.0000467336 -0.0000684485 0.0000000000
0.0000136406 -0.0000727500 0.0001654179 0.0000599384 -0.0001078442 0.0000000000
0.0000090938 -0.0000727500 0.0002370226 0.0000705774 -0.0001619929 0.0000000000
0.0000045469 -0.0000727500 0.0003249115 0.0000734371 -0.0002295602 0.0000000000
0.0000000000 -0.0000727500 0.0004224104 0.0000625964 -0.0003038247 0.0000000000
-0.0000045469 -0.0000727500 0.0005172420 0.0000333735 -0.0003719889 0.0000000000
-0.0000090938 -0.0000727500 0.0005938887 -0.0000132062 -0.0004175891 0.0000000000
-0.0000136406 -0.0000727500 0.0006395214 -0.0000689027 -0.0004274461 0.0000000000
-0.0000181875 -0.0000727500 0.0006484527 -0.0001216304 -0.0003969803 0.0000000000
-0.0000227344 -0.0000727500 0.0006235840 -0.0001593691 -0.0003322809 0.0000000000
-0.0000272813 -0.0000727500 0.0005743138 -0.0001746604 -0.0002473268 0.0000000000
-0.0000318281 -0.0000727500 0.0005130529 -0.0001674830 -0.0001587853 0.0000000000
-0.0000363750 -0.0000727500 0.0004500870 -0.0001431366 -0.0000794285 0.0000000000
-0.0000409219 -0.0000727500 0.0003920552 -0.0001089847 -0.0000163893 0.0000000000
-0.0000454688 -0.0000727500 0.0003424329 -0.0000720686 0.0000281916 0.0000000000
-0.0000500156 -0.0000727500 0.0003027784 -0.0000385051 0.0000544518 0.0000000000
-0.0000545625 -0.0000727500 0.0002690129 -0.0000108535 0.0000680540 0.0000000000
-0.0000591094 -0.0000727500 0.0002394040 0.0000104642 0.0000730571 0.0000000000
-0.0000636563 -0.0000727500 0.0002132164 0.0000259557 0.0000725559 0.0000000000
-0.0000682031 -0.0000727500 0.0001899615 0.0000364942 0.0000687708 0.0000000000
-0.0000727500 -0.0000727500 0.0001693151 0.0000430496 0.0000632557 0.0000000000
